"18630";"+BIEHL al 01 edp 100 ml";"85"
"16493";"+BIEHL al 01 edp 100 ml tester";"42"
"18629";"+BIEHL al 02 edp 100 ml";"85"
"18625";"+BIEHL al 03 edp 100 ml";"85"
"18621";"+BIEHL eo 01 edp 100 ml";"85"
"18623";"+BIEHL eo 02 edp 100 ml";"85"
"16418";"+BIEHL eo 02 edp 100 ml tester";"43"
"18631";"+BIEHL eo 03 edp 100 ml";"85"
"18628";"+BIEHL gs 02 edp 100 ml";"85"
"18622";"+BIEHL hb 01 edp 100 ml";"85"
"18624";"+BIEHL mb 01 edp 100 ml";"85"
"18627";"+BIEHL mb 02 edp 100 ml";"85"
"16893";"+BIEHL mb 02 edp 100 ml tester";"45"
"18626";"+BIEHL mb 03 edp 100 ml";"85"
"16451";"+BIEHL mb 03 edp 100 ml tester";"60"
"16747";"+BYREDO BAL D""AFRIQUE edp 100 ml";"115"
"16984";"+BYREDO BAUDELAIRE edp 100 ml";"122"
"17771";"+BYREDO BLACK SAFFRON edp 100 ml";"129"
"17770";"+BYREDO BULLION edp 100 ml";"122"
"19233";"+BYREDO FlOWERHEAD  edp 100 ml";"122"
"16985";"+BYREDO MISTER MARVELOUS edp 100 ml";"122"
"16986";"+BYREDO OUD IMMORTEL edp 100 ml";"115"
"16745";"+BYREDO PALERMOedp 100 ml";"122"
"17001";"+BYREDO ROSE NOIR edp 100 ml";"122"
"16840";"+BYREDO SUNDAY COLOGNE  edp 100 ml";"122"
"16825";"+CZECH and SPEAKE FRAKINCENSE and MYRRH fem 100 ml эксклюзив tester";"69"
"12854";"+EXVINIS floribus №1 Ananas Sativa edt 100 ml эксклюзив";"150"
"15270";"+EXVINIS floribus №4 Rubus Idaeus edt 100 ml эксклюзив";"150"
"15268";"+EXVINIS floribus №6 Piper Officinarum edt 100 ml эксклюзив";"150"
"15318";"+HERR VON EDEN ECLIRSE edp 100 ml эксклюзив";"205"
"15159";"+HERR VON EDEN EROS edp 50 ml эксклюзив";"170"
"15275";"+HERR VON EDEN EUTERPE edp 50 ml экслюзив";"170"
"18674";"+LAURENT MAZZONE Ambre Muscadin edp 100 ml эксклюзив";"100"
"19776";"+LAURENT MAZZONE Army of Lovers edp 100 ml эксклюзив Tester";"125"
"18678";"+LAURENT MAZZONE Chemise Blanche fem extract 100 ml ексклюзив";"113"
"19777";"+LAURENT MAZZONE Cicatrices fem extract 100 ml ексклюзив New";"140"
"19778";"+LAURENT MAZZONE Epine Mortelle extract 100 ml ексклюзив tester";"100"
"19508";"+LAURENT MAZZONE HARD LEATHER edp 100 ml  EXTRAT ексклюзив Tester";"130"
"20858";"+LAURENT MAZZONE Malefic Tattoo extrait de parfum 100 ml ексклюзив";"105"
"18680";"+LAURENT MAZZONE Noir Gabardine edp 100 ml ексклюзив";"92"
"18682";"+LAURENT MAZZONE O De Soupirs edp 100 ml ексклюзив";"90"
"18684";"+LAURENT MAZZONE Patchouly Boheme fem edp 100 ml ексклюзив";"95"
"20859";"+LAURENT MAZZONE Scandinavian Crime extract de parfum100 ml ексклюзив";"94"
"16820";"+NASOMATTO ABSINTH parfum 30 ml tester";"110"
"19202";"+NASOMATTO BLAMAGE parfum 30 ml";"140"
"16819";"+NASOMATTO CHINA WITE parfum 30 ml tester";"100"
"16818";"+NASOMATTO HINDU GRASS parfum 30 ml tester";"100"
"19802";"+NASOMATTO SILVER MUSK parfum 30 ml tester";"100"
"15302";"+NEJMA FIVE edp 100 ml эксклюзив";"100"
"15299";"+NEJMA TWO edp 100 ml эксклюзив";"100"
"15303";"+SOOUD FAM fem edp 60 ml эксклюзив";"260"
"20976";"AFNAN MODEST Homme Deux edp 100 ml";"55"
"20491";"AFNAN SUPREMASY silver pour homme edp 100 ml";"55"
"19100";"AJMAL SHADOW lady edp 75 ml";"17,5"
"19101";"AJMAL SHADOW { blue box } men edp 75 ml";"17,5"
"20863";"AL GHAWALI Amber edp 100 ml";"100"
"20864";"AL GHAWALI Luban edp 100 ml";"100"
"20865";"AL GHAWALI Musk edp 100 ml";"100"
"20866";"AL GHAWALI Oud edp 100 ml";"100"
"20867";"AL GHAWALI Ward edp 100 ml";"100"
"20490";"AL HARAMAN EETOILES men edp 100 ml";"34"
"18258";"ALEXANDRE.J Oscent Black LUX EDITION edp  100 ml";"89"
"18261";"ALEXANDRE.J The Collector Golden Oud edp  100 ml";"55"
"20871";"ALEXANDRE.J The Collector Mandarin Sultan edp  100 ml";"71"
"21034";"ALEXANDRE.J The Collector Mandarin Sultan edp  100 ml tester";"61"
"18262";"ALEXANDRE.J The Collector Morning Muscs edp  100 ml";"66"
"18264";"ALEXANDRE.J The Collector Silver Ombre edp  100 ml";"62"
"18265";"ALEXANDRE.J The Collector Zafeer Oud Vanilla edp  100 ml";"64"
"19756";"AMOUAGE DIA men edp 100 ml tester";"105"
"20151";"AMOUAGE FATE lady edp 100 ml tester";"115"
"19760";"AMOUAGE FATE men edp 100 ml tester";"115"
"19804";"AMOUAGE LIBRARY OPUS 1  men edp 100 ml tester";"104,5"
"19805";"AMOUAGE LIBRARY OPUS 2  men edp 100 ml tester";"105"
"20165";"AMOUAGE LIBRARY OPUS 7  men edp 100 ml";"125"
"21066";"ARAMIS DEVIN cologene men 100 ml";"22"
"11539";"ARAMIS TUSCANY edt men 100 ml";"30"
"13502";"ARAMIS edt men 110 ml";"21"
"20973";"ARMAF BLACK ONIX NICHE edt 90 ml";"60"
"20608";"ARMAF GOLD NICHE edp 90 ml";"60"
"20609";"ARMAF NICHE OUD edT 90 ml";"60"
"20611";"ARMAF PINK CORAL NICHE edp 90 ml";"60"
"20612";"ARMAF PURPLE AMETHYST edp 90 ml";"60"
"20613";"ARMAF RED RUBY NICHE edp 90 ml";"60"
"20614";"ARMAF RIXOS MAN  edp 100 ml";"60"
"16888";"ARMANI ACQUA di GIO ESSENZA men edp 40ml";"32"
"17907";"ARMANI ACQUA di GIOIA EAU FRAICHE fem edt 50 ml tester";"35"
"20876";"ARMANI ACQUA di GIOIA SUN fem edp 50 ml tester";"43"
"16609";"ARMANI ACQUA di GIOIA essenza fem edp 50 ml";"42"
"20743";"ARMANI ACQUA di GIOIA fem edp 20 ml";"22"
"19346";"ARMANI CODE ICE men edt 50 ml";"27"
"19413";"ARMANI CODE ICE men edt 75 ml tester";"32"
"18312";"ARMANI CODE LUNA fem edt 50 ml";"33"
"17890";"ARMANI CODE LUNA fem edt 50 ml tester";"29"
"19948";"ARMANI CODE SATIN fem edp 75 ml tester";"38"
"17743";"ARMANI CODE ULTIMATE men edt 75 ml INTENSE tester";"35"
"20745";"ARMANI CODE men edt 20 ml";"18"
"20112";"ARMANI EMPORIO DIAMONDS VIOLET lady edp 50 ml tester";"24"
"12369";"ARMANI EMPORIO men edt 50 ml tester";"26"
"18116";"ARMANI Eau pour homme  100 ml tester";"34"
"18613";"ARMANI Eau pour homme  50 ml";"27"
"17853";"ARMANI PRIVE ECLAT DE JASMIN edp100 ml tester";"155"
"19713";"ARMANI PRIVE OUD ROYAL  edt 100 ml tester";"150"
"17941";"ARMANI PRIVE ROSE ALEXANDRIE edt 100 ml";"145"
"18223";"ARMANI SI fem edp 30ml";"45"
"18145";"ARTISAN Parfumeur AL OUDH edt 100 ml";"41"
"18905";"ARTISAN Parfumeur AMOUR NOCTURNE edp 125 ml";"85"
"18909";"ARTISAN Parfumeur AMOUR NOCTURNE edp 125 ml tester";"70"
"16596";"ARTISAN Parfumeur BATUCADA ledy edt 100 ml";"44"
"18146";"ARTISAN Parfumeur CALIGNA  fem edp 100 ml";"50"
"18147";"ARTISAN Parfumeur COEURE DE VETIVER SACRE  edt 100 ml";"43"
"18148";"ARTISAN Parfumeur DROLE de ROSE fem edt 100 ml";"46"
"12767";"ARTISAN Parfumeur DZING fem edt 100 ml";"50"
"19119";"ARTISAN Parfumeur HAUTE VOLTIGE ledy edp 125 ml";"87"
"19128";"ARTISAN Parfumeur HAUTE VOLTIGE ledy edp 125 ml tester";"70"
"12768";"ARTISAN Parfumeur LA CHANSSE AUX PAPILLONS  ledy edt 100 ml";"50"
"19126";"ARTISAN Parfumeur LACHANSSE AUX PAPILLONS EXTREME ledy edp 100 ml";"59,5"
"11886";"ARTISAN Parfumeur LEAU DE LARTISAN ledy edt 100 ml";"40"
"18149";"ARTISAN Parfumeur LEAU D~AMBRE fem edt 100 ml";"40"
"19122";"ARTISAN Parfumeur MON NUMERO 9 eau colongne  100ml";"52"
"12442";"ARTISAN Parfumeur MUREet MUSC  fem edt 100 ml";"42"
"11644";"ARTISAN Parfumeur MUREet MUSC exstreme fem edp 100 ml";"45"
"18150";"ARTISAN Parfumeur NUIT de TUBEREUSE fem edp 100 ml";"48"
"19118";"ARTISAN Parfumeur ONDE SENSUELLE edp 125 ml";"87"
"19127";"ARTISAN Parfumeur ONDE SENSUELLE edp 125 ml tester";"66"
"20048";"ARTISAN Parfumeur ONDE SENSUELLE edp 50 ml";"42"
"13831";"ARTISAN Parfumeur PATCHOLILI PATCH ledy edt 100  ml";"42"
"19564";"ARTISAN Parfumeur POUVRE PIQUANT ledy edt 100 ml";"46"
"19121";"ARTISAN Parfumeur PREMIER FIGUTER extreme ledy edp100 ml";"46"
"13832";"ARTISAN Parfumeur PREMIER FIGUTER ledy edt 100 ml";"44"
"12766";"ARTISAN Parfumeur PRIMENT BRULANT ledy edt 100 ml";"46"
"19120";"ARTISAN Parfumeur RAPPELLE-TOI ledy edp 125 ml";"87"
"19130";"ARTISAN Parfumeur RAPPELLE-TOI ledy edp 125 ml tester";"66"
"20049";"ARTISAN Parfumeur RAPPELLE-TOI ledy edp 50 ml";"42"
"19560";"ARTISAN Parfumeur ROSE PRIVEE ledy edp 100 ml";"60"
"19559";"ARTISAN Parfumeur ROSE PRIVEE ledy edp 100 ml tester";"34"
"12441";"ARTISAN Parfumeur SAFRAN TROUBLANT ledy edt 100 ml";"46"
"19123";"ARTISAN Parfumeur SEVILLE A L AUBE ledy edp 100 ml";"45"
"19131";"ARTISAN Parfumeur SEVILLE A L AUBE ledy edtp100 ml tester";"38,5"
"18906";"ARTISAN Parfumeur SKIN on SKIN ledy edp 125 ml";"89"
"18908";"ARTISAN Parfumeur SKIN on SKIN ledy edp 125 ml tester";"66"
"13834";"ARTISAN Parfumeur TIMBUKTU ledy edt 100 ml";"50"
"18230";"ARTISAN Parfumeur TRAVERSEE DU BOSPHORE ledy edp 100 ml";"47"
"19125";"ARTISAN Parfumeur The Pour un Ete ledy edt 100 ml";"42"
"18152";"ARTISAN Parfumeur VOLEUR DE ROSES ledy edt 100 ml";"42"
"20101";"ATELIER COLOGNE Cedre Atlas 100 ml";"73"
"390";"AZZARO CHROM men edt 100 ml";"21,5"
"16988";"AZZARO L'EAU men edt 100 ml";"26"
"17864";"Agent Provocateur MAITRESSE lady edp 50 ml Новый Дизайн";"20"
"669";"Angel Schlesser ESSENTIAL MEN edt 100 ml tester";"15"
"1082";"Annick Coutal Ce soir ou JAMAIS fem edt 100 ml tester";"45"
"19981";"Annick Coutal EAU de CHARLOTTE fem edt 100 ml NEW";"62"
"19984";"Annick Coutal Eau d HADRIEN fem edt 100 ml NEW";"57,5"
"13154";"Annick Coutal Eau d HADRIEN fem edt 100 ml tester";"45"
"12169";"Annick Coutal Eau d HADRIEN men edt 100 ml tester";"40"
"19656";"Annick Coutal Eau d HADRIEN men edt 50 ml tester";"30"
"19658";"Annick Coutal Eau du SUD fem edt 100 ml tester";"45"
"20488";"Annick Coutal MANDRAGORE Pourple men edt 100 ml tester";"40"
"19623";"Annick Coutal MANDRAGORE men edt 100 ml";"57"
"19983";"Annick Coutal NUIT ETOILEE fem edp 100 ml NEW";"70"
"19666";"Annick Coutal QUEL AMOUR fem edp100 ml tester";"58"
"12972";"Annick Coutal QUEL AMOUR fem edt 100 ml tester";"48"
"615";"Armand BASI IN BLUE  men edt 100ml";"17,5"
"666";"Armand Basi  IN RED lady edt 100 ml  tester";"16"
"376";"Armand Basi  IN RED lady edt 50 ml";"15,5"
"12862";"BALDININI men edt 100 ml";"24,5"
"12863";"BALDININI men edt 100 ml tester";"21,5"
"18972";"BARCELONA CUSTO GLAM STAR fem edt 100 ml tester";"17"
"17072";"BARCELONA CUSTO PURE men edt 100 ml tester";"16"
"16785";"BOBBY JONES men edt 100 ml  новый диз.";"165"
"19932";"BOIS 1920 CLASSIC edt 100ml tester";"54"
"19727";"BOIS 1920 Rosa Di FILARE edp 100ml tester";"60"
"19937";"BOIS 1920 SENSUAL TUBEROSE edp 100ml tester";"60"
"19938";"BOIS 1920 SPIGO edp 100ml tester";"60"
"19939";"BOIS 1920 SUTRA YLANG edt 100ml tester";"54"
"20916";"BOND № 9  UNION SQUARE edp 50 ml";"70"
"20889";"BOND № 9 ANDY WARHOL  MONTAUK edp 100 ml";"90"
"20890";"BOND № 9 ANDY WARHOL  MONTAUK edp 50 ml";"70"
"16427";"BOND № 9 ANDY WARHOL SILVER FACTORY edp 100 ml серебро кор.";"110"
"16422";"BOND № 9 ANDY WARHOL SILVER FACTORY edp 50 ml серебро кор.";"80"
"17362";"BOND № 9 ANDY WARHOL SUCCESS is A JOB IN NY edp 100 ml оранж.кор.";"90"
"20892";"BOND № 9 ANDY WARHOL SUCCESS is A JOB IN NY edp 50 ml оранж.кор.";"70"
"20891";"BOND № 9 ASTOR PLACE edp 50 ml";"64"
"20894";"BOND № 9 BROADWAY NITE edp 100 ml";"84"
"16606";"BOND № 9 BROADWAY NITE edp 50 ml";"53"
"16883";"BOND № 9 BROOKLIYN. edp 100 ml";"78"
"20895";"BOND № 9 BROOKLIYN. edp 50 ml";"50"
"20896";"BOND № 9 BRYANT PARK edp 100 ml";"90"
"16607";"BOND № 9 BRYANT PARK edp 50 ml";"70"
"20900";"BOND № 9 CENTRAL PARK SOUTH edp 50 ml";"70"
"20897";"BOND № 9 CENTRAL PARK edp 100 ml";"90"
"17448";"BOND № 9 CENTRAL PARK edp 100 ml tester";"70"
"20898";"BOND № 9 CENTRAL PARK edp 50 ml";"70"
"17360";"BOND № 9 CHELSEA FLOWERS edp 100 ml";"85"
"17396";"BOND № 9 CHELSEA FLOWERS edp 100 ml tester";"75"
"16440";"BOND № 9 CHELSEA FLOWERS edp 50 ml";"64"
"20911";"BOND № 9 CHELSEA FLOWERS edp 50 ml SWAROVSKI";"85"
"20902";"BOND № 9 CHINATOWN edp 100 ml SWAROVSKI";"110"
"20901";"BOND № 9 CHINATOWN edp 50 ml";"70"
"20904";"BOND № 9 CONEY ISLAND edp 50 ml";"70"
"20905";"BOND № 9 COOPER SQUARE edp 100 ml";"90"
"20906";"BOND № 9 COOPER SQUARE edp 50 ml";"70"
"16424";"BOND № 9 EAU De NEW YORK edp 50 ml";"70"
"20912";"BOND № 9 EAU De NEW YORK edp 50 ml SWAROVSKI";"90"
"16389";"BOND № 9 FIRE ISLAND edp 100 ml";"90"
"16495";"BOND № 9 FIRE ISLAND edp 100 ml tester";"80"
"16421";"BOND № 9 FIRE ISLAND edp 50 ml";"70"
"16546";"BOND № 9 GRAMERCY PARK edp 100 ml";"110"
"17976";"BOND № 9 HAMPTONS edp 100 ml";"84"
"20908";"BOND № 9 HAMPTONS edp 50 ml";"53"
"20909";"BOND № 9 HIGH LINE edp 100 ml";"90"
"20910";"BOND № 9 HIGH LINE edp 50 ml";"53"
"17563";"BOND № 9 I LOVE NY FATHER's DAY  edp 100 ml tester";"74"
"17566";"BOND № 9 I LOVE NY MARRIAGE EQUALITY edp 100 ml tester";"80"
"18505";"BOND № 9 LITTLE ITALY  edp 100 ml";"90"
"16425";"BOND № 9 LITTLE ITALY  edp 50 ml";"70"
"16602";"BOND № 9 MADISON SOIREE edp 100 ml";"90"
"18953";"BOND № 9 MADISON SOIREE edp 100 ml tester";"80"
"16603";"BOND № 9 MADISON SOIREE edp 50 ml";"70"
"20134";"BOND № 9 MADISON SQUARE PARK edp 100 ml";"90"
"19437";"BOND № 9 MANHATTAN edp 100 ml";"100"
"17378";"BOND № 9 NEW YORK FLING edp 100 ml tester";"80"
"19439";"BOND № 9 NEW YORK MUSK edp 100 ml";"75"
"18587";"BOND № 9 NEW YORK PATCHOULI edp 100 ml tester";"70"
"17731";"BOND № 9 NOUVEAU BOWERY edp 100 ml tester";"80"
"16629";"BOND № 9 NUITS DE NOHO edp 100 ml";"88"
"16639";"BOND № 9 NUITS DE NOHO edp 50 ml";"70"
"20914";"BOND № 9 THE SCENTof PEACE edp 50 ml";"70"
"20918";"BOND № 9 WASHINGTON SQUARE edp 100 ml";"90"
"20919";"BOND № 9 WASHINGTON SQUARE edp 50 ml";"64"
"17732";"BOND № 9 WEST BRODWAY edp 100 ml tester";"74"
"394";"BOSS Baldessarini  DEL MAR men edt 90 ml tester";"18,5"
"673";"BOSS Baldessarini AMBRE men edt 90 ml";"30"
"395";"BOSS Baldessarini AMBRE men edt 90 ml tester";"23,5"
"20338";"BOSS Baldessarini NAUTIC SPIRIT men edt 90 ml";"32"
"18960";"BOSS Baldessarini PRIVATE AFFAIRS men edt 2 ml (от 100 шт)";"0,29"
"14072";"BOSS Baldessarini STRICTLY PRIVATE men edt 90 ml tester";"22,5"
"21080";"BOSS Baldessarini men eau cologne 75 ml";"28,5"
"21078";"BOSS Baldessarini men edc 75 ml tester";"22"
"18048";"BOSS DARK BLUE men edt 75 ml tester";"17,5"
"674";"BOSS DEEP RED lady edp 90 ml tester";"28"
"15606";"BOSS EDITION WHITE men edt 40 ml";"23"
"13980";"BOSS EDITION WHITE men edt 90 ml";"35"
"20787";"BOSS HUGO WOMEN lady edp 50 ml КРАСНЫЕ";"24"
"12511";"BOSS HUGO for MEN XY  edt 100 ml";"28"
"17344";"BOSS ORANGE Celebration of Happiness lady edt 50 ml";"26"
"16052";"BOSS ORANGE Orange Sunset lady edt 75 ml";"39"
"7015";"BOSS SELECTION edt men edt 90 ml tester";"27"
"20220";"BOSS The Collection SILK&JASMIN edt 50 ml  tester";"85"
"14902";"BOSS №6 BOTLE NIGHT edt men edt 100 ml";"27,5"
"21075";"BRUNO BANANI MADE For Woman  60 ml tester";"16"
"20849";"BURBERRY BODY TENDER fem edt 85 ml";"25"
"16150";"BURBERRY BODY fem edp 60 ml";"21,5"
"20883";"BURBERRY BODY fem edp 85 ml подмятая";"33"
"18662";"BURBERRY BRIT RHYTHM  men edt 90 ml tester";"17"
"20998";"BURBERRY BRIT RHYTHM FLORAL lady edt 90 ml tester";"21"
"19817";"BURBERRY BRIT RHYTHM intense men edt 90 ml tester";"21"
"18603";"BURBERRY BRIT RHYTHM lady edt 90 ml tester";"17"
"12106";"BURBERRY BRIT SHEER lady edt 100 ml tester";"20,5"
"11927";"BURBERRY BRIT SHEER lady edt 50 ml";"17,5"
"19843";"BURBERRY BRIT SPLASH men edt 100 ml tester";"26"
"17906";"BURBERRY BRIT SUMMER EDITION men edt 100 ml tester";"24"
"1037";"BURBERRY BRIT lady edp 100 ml tester";"23"
"11272";"BURBERRY BRIT lady edt 100 ml tester";"19"
"11385";"BURBERRY BRIT men edt 100 ml tester";"18"
"19586";"BURBERRY BRIT men edt 50 ml";"22"
"1209";"BURBERRY THE BEAT lady edp 30 ml";"24"
"1208";"BURBERRY THE BEAT lady edp 50 ml";"21,5"
"11458";"BURBERRY THE BEAT lady edp 75 ml tester";"22"
"14618";"BURBERRY THE BEAT man edT 50 ml";"24"
"33";"BURBERRY WEEK END lady edp 100 ml";"28"
"11910";"BURBERRY WEEK END lady edp 100 ml tester";"18,5"
"931";"BURBERRY Week End men edt 100 ml tester";"16"
"30";"BURBERRY for men edt 100 ml";"30"
"17069";"BURBERRY тряпка men edt 100 ml";"27"
"14412";"BURBERRY тряпка men edt 50 ml";"23"
"16727";"Blumarine BELLISSIMA INNAMORATA lady edp 30 ml";"18"
"18985";"Blumarine BELLISSIMA INNAMORATA lady edp 50 ml";"23"
"15835";"Britney Spears CIRCUS FANTASY lady edp 100ml tester";"24,5"
"20822";"Bulgari  GOLDEA  lady edp 90ml tester";"38"
"21044";"Bulgari  ROSE GOLDEA  lady edp 90ml tester";"36"
"19836";"Bulgari AQUA DIVINA  lady edt 65ml tester";"26"
"38";"Bulgari AQUA PH MARINE men edt 50 ml";"23"
"620";"Bulgari AQUA men edt  50ml";"21,5"
"13486";"Bulgari BLACK men edt 75 ml";"29"
"21062";"Bulgari BLV  pour homme edt 100 ml";"31"
"21043";"Bulgari OMNIA  PARAIBA  lady edt 65ml tester";"30"
"16667";"Bulgari OMNIA CORAL lady edt 40 ml";"23,5"
"11578";"Bulgari OMNIA CRYSTALLINE lady edt 40 ml";"21"
"11565";"Bulgari OMNIA CRYSTALLINE lady edt 65 ml";"30,5"
"13651";"Bulgari OMNIA GREEN JADE lady edt 65 ml tester";"37"
"19426";"C.LACROIX  BAZAR fem edp 30 ml";"16"
"14175";"C.LACROIX  BAZAR fem edp 50 ml";"19,5"
"12983";"C.LACROIX  BAZAR men edt 100 ml tester";"11"
"12395";"C.LACROIX  BAZAR men edt 30 ml";"16"
"11372";"C.LACROIX  BAZAR men edt 50 ml";"18"
"18337";"CACHAREL AMOR AMOR IN A FLASH lady edt 100 ml tester";"27"
"20543";"CACHAREL AMOR AMOR Mon parfum du SOIR lady edp 100 ml tester";"30"
"11955";"CACHAREL AMOR AMOR lady edt 100 ml";"36"
"66";"CACHAREL AMOR AMOR lady edt 30 ml";"17"
"21041";"CACHAREL AMOR AMOR lady edt 30 ml мятые";"17"
"19557";"CACHAREL ANAIS-ANAIS LORIGINAL lady edt 100 ml tester";"32"
"19558";"CACHAREL ANAIS-ANAIS PREMIER DELICE lady edt 100 ml tester";"22,5"
"19416";"CACHAREL CATCH....ME  lady edp 30 ml";"22"
"18104";"CACHAREL CATCH....ME  lady edp 50 ml";"32"
"17358";"CACHAREL CATCH....ME  lady edp 80 ml tester";"30"
"11786";"CACHAREL NOA fem edt 50 ml";"25"
"21039";"CACHAREL NOA fem edt 50 ml мятые";"24"
"21040";"CACHAREL NOA fem edt 50 ml разбитые";"25"
"17553";"CARON YATAGAN men edt 125 ml";"38"
"18484";"CARTIER EAU DE CARTIER Essence D""ORANGE men edt 100 ml tester";"27"
"18492";"CARTIER EAU DE CARTIER men концентрат 100 ml tester";"40"
"16728";"CD ADDICT EAU SENSUELLE lady edt 50 ml 2012";"48"
"17919";"CD ADDICT eau  DELICE lady edt 100 ml";"71"
"17881";"CD ADDICT eau  DELICE lady edt 50 ml";"48"
"19607";"CD ADDICT eau  DELICE lady edt 50 ml мят";"46"
"19066";"CD ADDICT eau Fraiche lady edt 100 ml  2014";"70"
"20037";"CD ADDICT eau Fraiche lady edt 30 ml (мятый) 2014";"35"
"16850";"CD ADDICT eau Fraiche lady edt 50 ml  2012";"48"
"20406";"CD ADDICT eau Fraiche lady edt 50 ml 2014мятая";"46"
"20529";"CD ADDICT lady edT 50 ml Новый дизайн 2014 мят";"40"
"41";"CD ADDICT lady edp 20 ml Новый дизайн 2011";"38"
"15536";"CD ADDICT lady edp 50 ml  дизайн 2011";"60"
"11374";"CD DIOR HOMME INTENSE men edp 50 ml подмят";"45"
"13979";"CD DIOR HOMME men edt 50 ml мятый";"49"
"19501";"CD DIOR STAR lady edt 50 ml tester";"48"
"14827";"CD EAU SAUVAGE EXTREME edt men 50 ml";"38"
"15542";"CD EAU SAUVAGE EXTREME edt men 50 ml мятый";"36"
"17591";"CD Escale a PARATI edt 125 ml tester";"24,5"
"20409";"CD FAHRENHEIT  COLOGNE men 75 ml";"55"
"20550";"CD HIGHER ENERGY men edt 100 ml tester не полный";"38"
"13703";"CD J`ADORE L`ABSOLU lady edp 50 ml(мятый)";"45"
"20207";"CD J`ADORE TOUCH Parfume Essense 20 ml tester без спрея";"60"
"20751";"CD MISS DIOR ABSOLUTELY BOUQUET lady edp 30 ml";"47"
"13590";"CD MISS DIOR CHERIE lady edt 100 ml tester";"65"
"12654";"CD MISS DIOR Extrait de PARFUME lady parfume 7.5 ml";"75"
"17923";"CD MISS DIOR LE PARFUM lady edp 75 ml 2012 год tester";"55"
"16405";"CD MISS DIOR lady eau FRAICHEedt 100 ml";"62"
"16225";"CD MISS DIOR lady edp 100 ml новый дизайн уже без CHERIE 2011";"72"
"17947";"CD POISON HYPNOTIC EAU SECRETE lady edt 100 ml";"57"
"18127";"CD POISON HYPNOTIC EAU SECRETE lady edt 50 ml";"55"
"15294";"CD POISON HYPNOTIC EAU SENSUELLE lady edt 100 ml";"65"
"15547";"CD POISON HYPNOTIC EAU SENSUELLE lady edt 50 ml";"48"
"18128";"CD POISON HYPNOTIC EAU SENSUELLE lady edt 50 ml подмятая";"46"
"14625";"CD POISON HYPNOTIC lady edt 100 ml";"67"
"78";"CH 212 NYC men edt 100 ml";"43,5"
"13618";"CH 212 SEXY men edt 100 ml tester";"35"
"13135";"CH 212 SEXY men edt 50 ml";"30"
"19553";"CH 212 VIP CLUB Edition men edt 100 ml";"34,5"
"15013";"CH 212 VIP lady edp 50 ml";"36"
"21090";"CH 212 VIP lady edp 50 ml мят";"34"
"76";"CH CHIC for MEN  men edt 100 ml tester";"32"
"19137";"CHANEL ALLURE EDITION BLANCHE men edp100 ml";"86"
"11520";"CHANEL ALLURE SENSUELLE fem Parfum 7.5 ml";"80"
"104";"CHANEL ALLURE SENSUELLE fem edp 35 ml";"56"
"103";"CHANEL ALLURE SENSUELLE fem edt 100 ml";"77"
"101";"CHANEL ALLURE SENSUELLE fem edt 50 ml";"60"
"14056";"CHANEL ALLURE SENSUELLE fem edt100 ml TESTER";"60"
"16530";"CHANEL ALLURE SPORT EAU EXTREME men edt 100 ml";"84"
"17213";"CHANEL ALLURE SPORT EAU EXTREME men edt 100 ml tester";"70"
"17427";"CHANEL ALLURE SPORT EAU EXTREME men edt 150 ml";"96"
"18225";"CHANEL ALLURE SPORT EAU EXTREME men edt 3*20 ml";"62"
"16536";"CHANEL ALLURE SPORT EAU EXTREME men edt 50 ml";"58"
"13078";"CHANEL ALLURE fem Parfum 15 ml";"115"
"98";"CHANEL ALLURE fem edp 35 ml";"56"
"96";"CHANEL ALLURE fem edp 50 ml";"71"
"12501";"CHANEL ALLURE fem edt 100 ml";"85"
"14704";"CHANEL ALLURE fem edt 100 ml tester";"65"
"14361";"CHANEL ALLURE fem edt 50 ml (без спрея)";"45"
"14594";"CHANEL ALLURE men edt 150  ml";"86"
"21074";"CHANEL BLEU men edP 100 ml подмятая";"86"
"16634";"CHANEL BLEU men edt 3*20 ml запаски";"55"
"116";"CHANEL CHANCE eau FRAICHE fem edt 100 ml";"95"
"17393";"CHANEL CHANCE eau FRAICHE fem edt 150 ml";"110"
"17394";"CHANEL CHANCE eau TENDRE fem edt 150 ml";"112"
"19549";"CHANEL CHANCE eau VIVE fem edt 100 ml";"92"
"20715";"CHANEL CHANCE eau VIVE fem edt 100 ml мятая";"88"
"20629";"CHANEL CHANCE eau VIVE fem edt 150 ml";"106"
"21060";"CHANEL CHANCE eau VIVE fem edt 150 ml подмятая";"104"
"20882";"CHANEL CHANCE eau VIVE fem edt 35 ml";"58"
"19701";"CHANEL CHANCE eau VIVE fem edt 50 ml";"68"
"11521";"CHANEL CHANCE fem Parfum  7.5 ml";"84"
"112";"CHANEL CHANCE fem edp100 ml";"105"
"114";"CHANEL CHANCE fem edt 100 ml";"90"
"13785";"CHANEL CHANCE fem edt 100 ml(мятая)";"80"
"17395";"CHANEL CHANCE fem edt 150 ml";"104"
"18123";"CHANEL CHANCE fem edt 150 ml мятая";"98"
"113";"CHANEL CHANCE fem edt 50 ml";"63"
"13331";"CHANEL CHANCE fem edt 50 ml без\спр";"50"
"16865";"CHANEL COCO NOIR fem edp 100ml";"106"
"20842";"CHANEL COCO NOIR fem edp 100ml подмят";"98"
"18079";"CHANEL COCO NOIR fem edp 35ml";"60"
"16867";"CHANEL COCO NOIR fem edp 50ml";"74"
"16868";"CHANEL COCO NOIR fem edp 50ml мятая";"69"
"11871";"CHANEL COCO fem Parfum 15ml";"130"
"12915";"CHANEL COCO fem Parfum 7.5ml";"85"
"12553";"CHANEL COCO fem edp 35 ml";"56"
"127";"CHANEL COCO fem edp 50ml";"70"
"19244";"CHANEL COCO fem edp 50ml брак.упак-ка";"67"
"11489";"CHANEL COCO fem edt 100ml tester";"55"
"11487";"CHANEL CRISTALLE fem edp 100 ml tester";"57"
"13226";"CHANEL CRISTALLE fem edp 50 ml";"55"
"20755";"CHANEL EAU De COLOGNE edt 200 ml без целлоф";"175"
"93";"CHANEL EGOISTE PLATINUM men edt 100 ml";"80"
"12552";"CHANEL MADEMOISELLE fem edp 3 х 20ml";"77"
"20789";"CHANEL MADEMOISELLE fem edp 3 х 20ml без целллоф мят";"72"
"11523";"CHANEL POUR MONSIEUR men edt 75 ml tester концентрат";"42"
"20293";"CHANEL № 18 edt 200ml tester";"150"
"20723";"CHANEL № 18 edt 75ml tester";"105"
"15985";"CHANEL № 19  POUDRE fem edp 100ml";"82"
"15939";"CHANEL № 19  POUDRE fem edp 50ml";"58"
"14095";"CHANEL № 19  fem Parfum 7.5ml";"92"
"11526";"CHANEL № 19  fem edp 50ml";"70"
"20753";"CHANEL № 22 edt 200ml";"180"
"20721";"CHANEL № 22 edt 75ml tester";"105"
"20434";"CHANEL № 5  fem LE BAIN MOUSSANT THE FOAMING BATH 200 ml";"30"
"14498";"CHANEL № 5  fem Parfum 35 ml tester";"79"
"20594";"CHANEL № 5  fem crem velours pour le corps velvet body crem 150 ml";"28"
"20578";"CHANEL № 5  fem edp 100 ml tester не долит";"57"
"13797";"CHANEL № 5  fem edt 3*20(запаска)";"52"
"13066";"CHANEL № 5 EAU PREMIERE fem edp 150 ml";"115"
"20633";"CHANEL № 5 EAU PREMIERE fem edp 35 ml";"56"
"16465";"CHLOE L'EAU lady edt 100 ml";"37"
"17693";"CHLOE SEEBY lady edp 50 ml";"41"
"17490";"CHLOE SEEBY lady edp 75 ml";"33"
"607";"CHLOE lady edp 30 ml";"26,5"
"11827";"CHLOE lady edp 75 ml";"42"
"19495";"CHOPARD Happy  Spirit BOUQET d AMOR lady edp 75 ml";"34"
"19496";"CHOPARD Happy  Spirit ELIXIR d AMOR lady edp 75 ml";"38"
"18481";"CK ENCOUNTER edt 50 ml men";"26"
"12417";"CK ETERNITY SUMMER 2007 edt men 100 ml tester";"33"
"12155";"CK ETERNITY SUMMER 2008 edt men 100 ml tester";"21"
"1055";"CK ETERNITY edp fem 100 ml tester";"23"
"160";"CK EUPHORIA MEN edt 100 ml";"25"
"15598";"CK FREE MEN edt 100 ml tester";"17"
"908";"CK OBSESSION  men 125 ml tester";"26"
"20748";"CK ONE SUMER edt 100 ml 2015 tester";"14"
"19848";"CK ONE edt 50 ml tester";"15"
"949";"CK TRUTH men edt 100 ml";"22"
"948";"CK TRUTH men edt 100 ml tester";"19"
"164";"CLINIQUE HAPPY FOR men edt 100 ml";"35,5"
"162";"CLINIQUE HAPPY FOR men edt 50 ml";"24"
"166";"CLINIQUE HAPPY HEARTlady 30 ml";"26,5"
"20935";"CLINIQUE HAPPY HEARTlady 30 ml мятая";"24"
"12083";"CLINIQUE HAPPY lady 100 ml";"37"
"14249";"CLINIQUE HAPPY lady 100 ml tester";"45"
"16056";"CLIVE CHRISTIAN  ""C"" fem parfume  50 ml";"200"
"16060";"CLIVE CHRISTIAN  ""C"" men  parfume  50 ml";"200"
"16595";"CLIVE CHRISTIAN  ""C"" men  parfume  50 ml tester";"235"
"12029";"CLIVE CHRISTIAN  * X *men  parfume 50 ml tester bleck";"107"
"20862";"CLUB de NUIT INTENSE men edt 100 ml";"80"
"17357";"COACH 1941 for lady Legacy edp 50 ml";"105"
"16583";"CREED AVENTUS men 120 ml";"185"
"20710";"CREED Acier Aluiminium 75 ml tester";"74"
"19429";"CREED Acqua Originale  Aberdeen Lavander  100 ml";"105"
"19432";"CREED Acqua Originale  Cedre Blanc 100 ml";"145"
"19174";"CREED Fleur de Gardenia  fem 250 ml без спрея";"180"
"11403";"CREED Jasmin Imperatrice Eugenie fem 75 ml tester";"76"
"1094";"CREED Neroli Sauvage men 75 ml tester";"73"
"1100";"CREED Selection Verte men 75 ml tester";"86"
"1102";"CREED Tabarome men 75 ml tester";"82"
"15188";"CREED Virgin Island Water fem 75 ml";"95"
"11415";"CREED Zeste Mandarine Pamplemousse men 75 ml tester";"76"
"18803";"Comme de Garcons  BLU CEDRAT edp  100ml";"72"
"18804";"Comme de Garcons  BLU ENCENS edp  100ml";"72"
"19543";"Comme de Garcons  GIRL edp  100ml";"80"
"18806";"Comme de Garcons CHALAYAN AIRBONE edt 50 ml";"52"
"18808";"Comme de Garcons ENERGY C  LIME edt 30 ml";"46"
"18826";"Comme de Garcons ENERGY C GRAPEFRUIT edt 30 ml";"45"
"18807";"Comme de Garcons ENERGY C LEMON edt 30 ml";"45"
"18817";"Comme de Garcons PLAY BLACK edt 100 ml";"85"
"18818";"Comme de Garcons PLAY RED  edt 100 ml нов дизайн";"75"
"18820";"Comme de Garcons PLAY RED  edt 100 ml стар дизайн";"95"
"14088";"D&G 10 LA ROUE DE LA FORTUNE lady edt 100 ml";"28"
"14528";"D&G 10 LA ROUE DE LA FORTUNE lady edt 100 ml tester";"20"
"16156";"D&G 21 LE FOU men edt 100 ml";"37"
"16157";"D&G 21 LE FOU men edt 50 ml";"30"
"15069";"D&G 3 L'IMPERATRICE lady edt 50 ml";"37"
"21033";"D&G DOLCE  пакет 15х15";"1"
"18689";"D&G DOLCE lady edp 75 ml tester";"36"
"16751";"D&G Light Blue Living Stromboli MEN edt 40 ml";"27"
"16750";"D&G Light Blue Living Stromboli MEN edt 75 ml";"33"
"17738";"D&G THE ONE DESIRE lady edP intense 30 ml";"32"
"17737";"D&G THE ONE DESIRE lady edP intense 50 ml";"41"
"17736";"D&G THE ONE DESIRE lady edP intense 75 ml";"50"
"171";"D&G THE ONE lady edP 30 ml";"34"
"18585";"D&G THE ONE men edt100 ml";"45,5"
"12418";"D&G THE ONE men edt100 ml tester";"31"
"20765";"D&G VELVET BERGAMOT men edp 50 ml tester";"70"
"20808";"D&G VELVET COLLECT EXOTIC LEATHER edp 150 ml";"200"
"20810";"D&G VELVET COLLECT LOVE edp 150 ml";"200"
"20766";"D&G VELVET COLLECT LOVE edp 50 ml tester";"66"
"20812";"D&G VELVET COLLECT PATCHOULI edp 150 ml";"200"
"20815";"D&G VELVET COLLECT SUBLIME edp 150 ml";"200"
"20769";"D&G VELVET COLLECT SUBLIME edp 50 ml tester";"80"
"20771";"D&G VELVET COLLECT VETIVER edp 50 ml tester";"70"
"20772";"D&G VELVET COLLECT WOOD edp 50 ml tester";"70"
"20809";"D&G VELVET GINESTRA lady edp 150 ml";"189"
"20773";"D&G VELVET GINESTRA lady edp 50 ml tester";"70"
"20811";"D&G VELVET MIMOZA BLOOM lady edp 150 ml";"189"
"20767";"D&G VELVET MIMOZA BLOOM lady edp 50 ml tester";"76"
"20814";"D&G VELVET PURE edp 150 ml";"189"
"20774";"D&G VELVET PURE edp 50 ml tester";"70"
"20768";"D&G VELVET ROSE lady edp 50 ml tester";"70"
"20816";"D&G VELVET TENDER OUD lady edp 150 ml";"210"
"1150";"D&G красная lady edp 25 ml новые";"32"
"17316";"D&G красная lady edp 50 ml новые";"38"
"17601";"DALI  lady edp 100  ml tester";"18"
"15343";"DALI BLACK SUN SPORT men edt 100 ml tester";"17"
"15640";"DALI BLACK SUN SPORT men edt 100 ml мятые";"21"
"12135";"DALI EAU DE RUBYLIPS lady edt 100  ml tester";"22"
"18748";"DAVID YURMAN edp fem 30 ml";"28"
"21058";"DAVID YURMAN edp fem 75 ml tester Limited";"60"
"16333";"DAVIDOFF CHAMPION ENERGY men edt 90ml";"15"
"12626";"DAVIDOFF COOL WATER fem edt 50ml";"12"
"192";"DAVIDOFF COOL WATER men edt 75ml";"12"
"196";"DAVIDOFF ECHO WOMAN edp 30 ml";"17"
"11390";"DAVIDOFF SILVER SHADOW men edt 100  ml";"18,5"
"20129";"DAVIDOFF THE GAME men edt 100ml tester";"16"
"20798";"DIESEL FUEL for LIFE spirit pour homme edt 75 ml tester";"28"
"21037";"DIESEL Only the Brave  men edt 50 ml";"32"
"21038";"DIESEL Only the Brave  men edt 50 ml мятые";"29"
"20582";"DIESEL fem LOVERDOSE  TATTOO EDT 75 TESTER";"28"
"20937";"DKNY BE DELICIOUS GOLDEN  lady edp 100 ml";"38"
"17481";"DKNY BE DELICIOUS GOLDEN  lady edp 50 ml tester";"22"
"15360";"DKNY BE DELICIOUS GOLDEN lady edp 30 ml";"25"
"20940";"DKNY BE DELICIOUS sparkling  lady edp 30 ml";"20"
"20566";"DKNY DKNY PURE VERBENA lady edp 100 ml tester зеленые буквы не полный";"35"
"17052";"DKNY DKNY PURE lady edp 100 ml tester белые буквы";"40"
"217";"DKNY fem edp 50 ml";"24,5"
"15968";"DSQUARED Golden Light  WOOD fem edp 100 ml tester";"22"
"15629";"DSQUARED Golden Light  WOOD fem edp 50 ml";"18,5"
"14893";"DSQUARED Ocean Wet WOOD  men edt 100 ml tester";"22,5"
"16657";"DSQUARED Rocky Mountain he WOOD men edt 100ml";"31,5"
"14798";"DSQUARED Rocky Mountain he WOOD men edt 50ml";"24"
"14797";"DSQUARED he WOOD  men edt 100ml";"31"
"14796";"DSQUARED he WOOD  men edt 50ml";"22"
"11709";"DUPONT ESSENCE PURE fem edt 100 m tester";"19"
"709";"DUPONT ESSENCE PURE for MEN edt 100 m tester";"15,5"
"13318";"DUPONT PASSENGER for MEN edt 100 ml";"21"
"20731";"DUPONT PASSENGER lady edp 100 ml";"21"
"19584";"DUPONT SO  for MEN edt 100 ml";"20,5"
"222";"DUPONT lady edp 100 ml tester";"16,5"
"223";"DUPONT lady edp 50 ml";"20"
"13552";"DUPONT lady edp100 ml";"21,5"
"13542";"Dunhill  DESIRE BLUE men edt 100 ml tester";"23,5"
"20682";"Dunhill  X-CENTRIC men edt 100 ml";"25"
"18247";"E.LAUDER  VERY ESTEE 50 ML";"40"
"20949";"E.LAUDER  VERY ESTEE 50 ML мятая";"37"
"20941";"E.LAUDER AMBER MYSTIQUE 100 ML";"46"
"11618";"E.LAUDER BEAUTIFUL edp 75 ml tester";"34,5"
"16929";"E.LAUDER Beyond Parodis colon men 100 ml";"55"
"20660";"E.LAUDER Beyond Parodis edp 100 ml не долит";"43"
"16222";"E.LAUDER CALYX edp 100 ml tester";"46"
"12023";"E.LAUDER CALYX edp 50 ml";"36"
"20979";"E.LAUDER MODERN MUSE CHIC lady edp 50 ml";"46"
"14973";"E.LAUDER PLEASURES BLOOM lady edp 100 ml";"46"
"15735";"E.LAUDER PLEASURES BLOOM lady edp 100 ml tester";"35"
"16354";"E.LAUDER PLEASURES BLOOM lady edp 30 ml";"26"
"14974";"E.LAUDER PLEASURES BLOOM lady edp 50 ml";"35"
"689";"E.LAUDER PLEASURES colon men 100 ml tester";"30"
"238";"E.LAUDER PLEASURES edp 100 ml";"50"
"240";"E.LAUDER PLEASURES intense edp 50 ml";"47"
"11528";"E.LAUDER PURE WHITE LINEN BREIZ  fem edp 30 ml  зеленый";"26"
"13711";"E.LAUDER PURE WHITE LINEN PINK CORAL fem edp 30ml";"22"
"20944";"E.LAUDER SENSUOUS NUDE lady edp 100 ml";"52"
"20945";"E.LAUDER SENSUOUS NUDE lady edp 100 ml мятая";"49"
"20946";"E.LAUDER SENSUOUS NUDE lady edp 30 ml";"32"
"20947";"E.LAUDER SENSUOUS NUDE lady edp 50 ml";"40"
"20948";"E.LAUDER SENSUOUS NUDE lady edp 50 ml мятые";"37"
"13263";"E.LAUDER SENSUOUS lady edp 100 ml";"48"
"13523";"E.LAUDER SENSUOUS lady edp 100 ml(мятая)";"45"
"13070";"E.LAUDER SENSUOUS lady edp 50 ml";"36"
"13108";"E.LAUDER SENSUOUS lady edp 50 ml мятая";"34"
"14239";"E.LAUDER WHITE LINEN fem edp 60 ml";"39"
"11289";"E.LAUDER WHITE LINEN fem edp 60 ml tester";"34"
"20950";"E.LAUDER WOOD MYSTIQUE edp fem 100 ml";"94,5"
"18037";"EISENBERG BACK TO PARIS fem edp 100 ml";"60"
"20441";"EISENBERG DIABOLIQUE men edp 100 ml tester";"48"
"19455";"EISENBERG EAU FRAICHE fem edp 100 ml tester";"48"
"20164";"EISENBERG EAU FRAICHE fem edp 30 ml";"39"
"17926";"EISENBERG ROUGE NOIR fem edp 100 ml";"60"
"781";"EL Arden 5th-Avenue edp 75ml";"14,5"
"1238";"ELLEN TRACY lady edp 100 ml";"15"
"12066";"ELLEN TRACY lady edp 100 ml tester";"13,5"
"14931";"EMILIO PUCCI MISS PUCCI edp fem 30 ml";"39"
"14926";"EMILIO PUCCI MISS PUCCI edp fem 75 ml";"62"
"15929";"EMILIO PUCCI MISS PUCCI intence edp fem 30 ml";"39"
"20832";"ETRO ANiCE 100ml";"48"
"19476";"ETRO DIANTHUS edt 100ml";"53,5"
"20457";"ETRO DIANTHUS edt 100ml tester Не полный";"45"
"19479";"ETRO GREEN STREET edt 100ml";"48,5"
"19480";"ETRO JACQUARD edp 100ml";"70"
"19671";"ETRO JACQUARD edp 100ml tester";"55"
"19481";"ETRO MUSK edt 100ml New";"56"
"1083";"ETRO VICOLO FLORI 100ml tester";"52"
"976";"EZRA FITCH men  cologne 100 ml tester";"280"
"18062";"Escada E ESPECIALLY ELLIXSIR  intens lady edp 50 ml";"22"
"17480";"Escada E ESPECIALLY delicate notes lady edt 75 ml";"45"
"17826";"Escada ISLAND  PARADISE lady edt 100ml";"40,5"
"18737";"Escada ISLAND KISS lady edt 100ml";"30"
"16462";"Escada ISLAND KISS lady edt 50ml";"34"
"19499";"Escada JOYFUL lady edp 75 ml";"32"
"744";"Escada MAGNETISM lady edp 25 ml";"26"
"803";"Escada MAGNETISM lady edp 50 ml";"33"
"13241";"Escada MAGNETISM lady edp 75 ml";"35"
"16455";"Escada SEXY GRAFFITI lady edt 30ml";"26"
"17782";"FENDI FANDI ACQUA men edt 100 ml tester";"26"
"18166";"FENDI FANDI ACQUA men edt 100 ml мятая";"40"
"18007";"FENDI FANDI ACQUA men edt 50 ml";"30"
"18716";"FENDI FANDI BLOSSOM lady edt 30 ml";"37"
"18235";"FENDI FANDI DELUXE LEATHER LIMITED EDITION fem edp 50 ml";"43"
"16907";"FENDI FANDI EXTRIME lady edp 30 ml";"27"
"20528";"FENDI FANDI EXTRIME lady edp 30 ml мят";"25"
"16895";"FENDI FANDI EXTRIME lady edp 50 ml";"40"
"17094";"FENDI FANDI LEATHER ESSENCE lady edp 50 ml";"35"
"16651";"FENDI FANDI The Color Limited lady edt 50 ml";"30"
"15046";"FENDI FANDI lady edp 30 ml";"35"
"15045";"FENDI FANDI lady edp 50 ml";"41"
"16197";"FENDI FANDI lady edp 50 ml мятые";"36"
"15042";"FENDI FANDI lady edp 75 ml";"56"
"16002";"FENDI FANDI lady edt 50 ml мятый";"30"
"15838";"FENDI FANDI lady edt 75 ml";"39"
"14542";"FERRE AZZURA AQUA men edt 100 ml";"24,5"
"15366";"FERRE AZZURA AQUA men edt 100 ml tester";"18"
"14544";"FERRE AZZURA AQUA men edt 30 ml";"15"
"16316";"FERRE AZZURA AQUA men edt 30 ml мятая";"17"
"14543";"FERRE AZZURA AQUA men edt 50 ml";"18,5"
"15346";"FERRE IN THE MOOD FOR LOVE PURE edt 100 ml TESTER";"17"
"15583";"FERRE IN THE MOOD FOR LOVE PURE edt 50 ml";"25,5"
"15903";"FERRE IN THE MOOD FOR LOVE TENDER lady edt 100 ml";"32,5"
"16344";"FERRE IN THE MOOD FOR LOVE TENDER lady edt 50 ml";"25,5"
"16339";"FERRE IN THE MOOD FOR LOVE men edt 100 ml tester";"16,5"
"16194";"FERRE IN THE MOOD FOR LOVE men edt 50 ml";"24,5"
"15732";"FERRE ROSE PRINCESSE lady edt 100 ml tester";"16"
"14541";"FERRE ROSE PRINCESSE lady edt 50 ml";"19,5"
"254";"FERRE ROSE lady edt 100 ml tester";"17"
"11781";"FIDJI edt 100 ml";"43"
"19619";"GENERALE Parfumerie BOIS BLOND fem edp 100 ml";"100"
"19529";"GENERALE Parfumerie BOIS BLOND fem edp 50 ml";"80"
"19532";"GENERALE Parfumerie CORPS AMES fem edt 50 ml";"78"
"19433";"GENERALE Parfumerie GADENIA GRAND SOIR fem edt 50 ml";"78"
"19908";"GENERALE Parfumerie06 L'eau RARE MATALE edt 100 ml";"109"
"19538";"GENERALE Parfumerie06 L'eau RARE MATALE edt 50 ml";"70"
"19624";"GENERALE Parfumerie07 COLOGNE GRAND SIECLE edt 100 ml";"99"
"19531";"GENERALE Parfumerie07 COLOGNE GRAND SIECLE edt 50 ml";"70"
"19907";"GENERALE Parfumerie08 INTRIGANT PATCHOULI edp 100 ml";"110"
"18929";"GENERALE Parfumerie08 INTRIGANT PATCHOULI edp 100 ml tester";"95"
"19535";"GENERALE Parfumerie08 INTRIGANT PATCHOULI edp 50 ml";"75"
"18927";"GENERALE Parfumerie09 YUZU AB IRATO edt 100 ml";"130"
"18930";"GENERALE Parfumerie09 YUZU AB IRATO edt 100 ml tester";"100"
"19542";"GENERALE Parfumerie09 YUZU AB IRATO edt 50 ml";"78"
"19434";"GENERALE Parfumerie11 HARMATAN NOIR edt 100 ml";"105"
"19534";"GENERALE Parfumerie11 HARMATAN NOIR edt 50 ml";"79"
"18916";"GENERALE Parfumerie12 HYPERESSENCE MATALE edp 100 ml";"100"
"18923";"GENERALE Parfumerie12 HYPERESSENCE MATALE edp 30 ml";"60"
"18922";"GENERALE Parfumerie12 HYPERESSENCE MATALE edp 50 ml";"75"
"19536";"GENERALE Parfumerie14 IRIS TAIZO edt 50 ml";"75"
"19627";"GENERALE Parfumerie15 ILANG IVOHIBE edt 100 ml";"110"
"18926";"GENERALE Parfumerie15 ILANG IVOHIBE edt 50 ml";"70"
"19621";"GENERALE Parfumerie16 JARDINS de KERYLOS edt 100 ml";"62"
"18921";"GENERALE Parfumerie16 JARDINS de KERYLOS edt 50 ml";"62"
"19620";"GENERALE Parfumerie18 CADJMERE edt 100 ml";"100"
"19905";"GENERALE Parfumerie18 CADJMERE edt 50 ml";"75"
"19540";"GENERALE Parfumerie19 LOUANGES PROFANES edt 50 ml";"84"
"20161";"GENERALE Parfumerie20 L""EAU GUERRIERE edt 100 ml";"100"
"18932";"GENERALE Parfumerie20 L""EAU GUERRIERE edt 100 ml tester";"92"
"19632";"GENERALE Parfumerie22 DJENNE edt 100 ml";"100"
"18925";"GENERALE Parfumerie23 DRAMA NUUI edt 100 ml";"100"
"18933";"GENERALE Parfumerie23 DRAMA NUUI edt 100 ml tester";"92"
"18924";"GENERALE Parfumerie23 DRAMA NUUI edt 50 ml";"84"
"19412";"GENERALE Parfumerie24 Papyrus de Ciane  edt 100 ml";"104"
"19630";"GENERALE Parfumerie24 Papyrus de Ciane  edt 50 ml";"75"
"18913";"GENERALE Parfumerie25 INDOCHINE fem edt 100 ml";"85"
"18912";"GENERALE Parfumerie25 INDOCHINE fem edt 50 ml";"68"
"17023";"GHOST ENCHANTED BLOOM lady edt 75 ml tester";"30"
"15781";"GIVENCHY ANGE OU DEMON FLEUR D'ORANGER 2009 lady edp 60 ml";"50"
"18194";"GIVENCHY ANGE OU DEMON LE SECRET Эликсир lady edp 50 ml";"45"
"11903";"GIVENCHY ANGE OU DEMON lady edp 100 ml";"48"
"17953";"GIVENCHY ANGE OU DEMON lady edp 100 ml мятая";"44"
"258";"GIVENCHY ANGE OU DEMON lady edp 30 ml";"30"
"1143";"GIVENCHY ANGE OU DEMON lady edp 50 ml";"39"
"17833";"GIVENCHY BLOOM fem 50 ml edt tester";"40"
"11581";"GIVENCHY BLUE LABLE men edt 100 ml";"36,5"
"16328";"GIVENCHY DAHLIA NOIR  fem edt  30 ml";"32"
"16376";"GIVENCHY DAHLIA NOIR  fem edt  75 ml";"46"
"17880";"GIVENCHY DAHLIA NOIR LEAU  fem edt 50 ml";"34"
"18226";"GIVENCHY DAHLIA NOIR LEAU  fem edt 50 ml мят";"32"
"17879";"GIVENCHY DAHLIA NOIR LEAU  fem edt 90 ml";"43"
"14629";"GIVENCHY Eau DEMOISELLE  fem edt 50ml";"36"
"16633";"GIVENCHY Eau DEMOISELLE eau fraiche fem edt 50ml";"33"
"17739";"GIVENCHY GENTLEMEN ONLY men edt 50 ml";"29"
"910";"GIVENCHY GENTLEMEN men edt 100 ml tester";"40"
"20103";"GIVENCHY JARDIN Precieux  edt  50 ml tester";"26"
"12878";"GIVENCHY ORGANZA fem edp 50 ml";"41"
"15645";"GIVENCHY PI NEO TROPICAL PARADISE men edt 100ml";"28"
"17246";"GIVENCHY PI NEO TROPICAL PARADISE men edt 100ml мятый";"26"
"14518";"GIVENCHY PI NEO men edt 50ml";"28"
"16910";"GIVENCHY PLAY SPORTmen edt 100 ml";"38"
"20555";"GIVENCHY PLAY SPORTmen edt 100 ml tester не полный";"20"
"16934";"GIVENCHY PLAY SPORTmen edt 50 ml";"23"
"15407";"GIVENCHY PLAY intence ledy edp 50 ml мятый";"29"
"14935";"GIVENCHY PLAY intence ledy edp 75 ml";"37"
"16087";"GIVENCHY PLAY intence ledy edp 75 ml мятый";"35"
"268";"GIVENCHY POUR HOMME men edt 100 ml";"37,5"
"16589";"GIVENCHY V.Irresistible  ELECTRIC ROSE lady edt 50ml";"26"
"19641";"GIVENCHY V.Irresistible  ELECTRIC ROSE lady edt 50ml tester";"24"
"17114";"GIVENCHY V.Irresistible  ELECTRIC ROSE lady edt 50ml мятая";"24"
"16590";"GIVENCHY V.Irresistible  ELECTRIC ROSE lady edt 75ml";"33"
"19706";"GIVENCHY V.Irresistible  L""EAU en ROSE lady edt  50ml";"23"
"18981";"GIVENCHY V.Irresistible  L""EAU en ROSE lady edt 75ml tester";"33"
"11620";"GIVENCHY V.Irresistible  lady edt 30ml";"34"
"15890";"GIVENCHY V.Irresistible  lady edt 30ml мятый";"27"
"18729";"GIVENCHY V.Irresistible EDITION CROISIERE lady edt 75 ml tester";"40"
"269";"GIVENCHY V.Irresistible FRESH ATTITUDE men edt 100 ml";"40"
"15683";"GIVENCHY V.Irresistible L""INTENSE lady edp 30 ml";"36"
"15647";"GIVENCHY V.Irresistible L""INTENSE lady edp 50 ml";"41"
"17505";"GIVENCHY V.Irresistible L""INTENSE lady edp 50 ml tester";"30"
"15648";"GIVENCHY V.Irresistible L""INTENSE lady edp 75 ml";"53"
"15443";"GIVENCHY V.Irresistible Poesie D'un D'hiver winter  lady edp 50ml";"44"
"18769";"GIVENCHY V.Irresistible Poesie D'un D'hiver winter  lady edp 50ml tester";"40"
"11719";"GIVENCHY V.Irresistible SENSUAL lady edp 30 ml";"35"
"16784";"GIVENCHY V.Irresistible TROPICAL PARADISE lady edt 75 ml tester";"32"
"17982";"GUCCI  MADE TO MEASURE  Pour Homme edt 50 ml";"31"
"19887";"GUCCI BY GUCCI BAMBOO lady edp 50 ml";"39,5"
"14623";"GUCCI BY GUCCI SPORT men edt  50 ml";"29"
"898";"GUCCI BY GUCCI lady edp 30 ml";"35,5"
"18984";"GUCCI BY GUCCI lady edp 30 ml мятая";"33,5"
"12941";"GUCCI BY GUCCI lady edt 30 ml";"32"
"12942";"GUCCI BY GUCCI lady edt 50 ml";"41"
"12839";"GUCCI BY GUCCI men edt  50 ml";"34"
"17758";"GUCCI FLORA  GLORIOUS MANDARIN lady edt 50 ml";"39"
"16588";"GUCCI FLORA  GRACIOUS TUBEROSE lady edt 50 ml";"37"
"17774";"GUCCI FLORA lady edp 1966 100 ml";"135"
"17238";"GUCCI FLORA lady edt 4*15 ml";"43"
"15861";"GUCCI FLORA lady edt 4*15 ml tester";"33"
"13638";"GUCCI FLORA lady edt 75ml";"49"
"21068";"GUCCI GUILTY  Stud limited men edt 90ml tester";"27,5"
"15035";"GUCCI GUILTY  lady edt 50 ml";"37"
"18533";"GUCCI GUILTY  men edt 90ml Limited";"30"
"17446";"GUCCI GUILTY BLACK lady edt 30 ml";"30"
"17337";"GUCCI GUILTY BLACK lady edt 50 ml";"34,5"
"17338";"GUCCI GUILTY BLACK lady edt 75 ml";"46"
"17342";"GUCCI GUILTY BLACK men edt 50ml";"30"
"16276";"GUCCI GUILTY INTENSE men edt 50ml";"32"
"279";"GUCCI II  lady edp 30 ml роз.";"29"
"19172";"GUCCI PREMIERE lady edt 50 ml";"34"
"17324";"GUERLAIN  ANGELIQUE NOIRE edp 75 ml";"150"
"21056";"GUERLAIN  ARSENE LUPIN  men edp 100 ml потертая";"130"
"20888";"GUERLAIN  BOISE d`ARMENIE edp 75 ml LUX (в шкатулке)";"160"
"17318";"GUERLAIN  CHAMADE POUR HOMME men edt 100 ml";"130"
"20886";"GUERLAIN  CRUEL GARDENIA edp 75 ml LUX (в шкатулке)";"160"
"17323";"GUERLAIN  ELIXIR CHARNEL CHYPRE FATAL edp 75 ml";"150"
"17321";"GUERLAIN  ELIXIR CHARNEL FLORAL ROMANTIQUE edp 75 ml";"155"
"20970";"GUERLAIN  ELIXIR CHARNEL FRENCH KISS edp 75 ml";"150"
"19427";"GUERLAIN  ELIXIR CHARNEL ORIENTAL BRULANT edp 75 ml";"135"
"20303";"GUERLAIN  ELIXIR CHARNEL ORIENTAL BRULANT edp 75 ml мятая,тертая";"130"
"17486";"GUERLAIN  ENCENS MYTHIQUE D'ORIENT edp 75 ml";"170"
"18045";"GUERLAIN  L'AME D'UN HEROS edt 100 ml";"150"
"18253";"GUERLAIN  L'HEURE de NUIT edp 125 ml";"160"
"21050";"GUERLAIN  L'HEURE de NUIT edp 125 ml потертая";"150"
"20969";"GUERLAIN  MADEMOISELLE  edp 125 ml";"150"
"21069";"GUERLAIN  MON EXCLUSIF edp 50 ml";"90"
"21053";"GUERLAIN  MUGUET edt 100 ml 2016";"300"
"20302";"GUERLAIN  MYRRHE DELIRES edp 75 ml мятая тертая коробка";"130"
"21048";"GUERLAIN  NEROLI OUTRENOIR edp 75 ml LUX";"150"
"18075";"GUERLAIN  NEW YORK edp 100 ml";"130"
"18956";"GUERLAIN  NEW YORK edp 100 ml tester";"130"
"21051";"GUERLAIN  NEW YORK edp 100 ml потертая";"120"
"17330";"GUERLAIN  NEW YORK edt 245 ml";"100"
"17327";"GUERLAIN  NUIT D'AMOUR edp 125 ml";"140"
"19304";"GUERLAIN  NUIT D'AMOUR edp 125 ml потертая коробка";"135"
"17487";"GUERLAIN  ORIENTAL BRULANT edp 75 ml";"170"
"21070";"GUERLAIN  PETIT Guerlain  edt 125 ml";"80"
"21054";"GUERLAIN  ROSE NACREE Du DESERT edp 75 ml";"160"
"21049";"GUERLAIN  SANTAL ROYAL  edp 125 ml +15 ml";"160"
"18254";"GUERLAIN  SHANGHAI edp 100 ml";"130"
"21052";"GUERLAIN  SHANGHAI edp 100 ml потертая";"120"
"21055";"GUERLAIN  SONGE D'UN BOIS D'ETE edp 75 ml";"150"
"21047";"GUERLAIN  TONKA IMPERIALE edp 75 ml LUX";"150"
"19305";"GUERLAIN  TONKA IMPERIALE edp 75 ml потертая";"130"
"696";"GUERLAIN A. ALLEGORIA Angelique-Lilas edt fem 125 ml tester";"38"
"20192";"GUERLAIN A. ALLEGORIA Bouquet de Mai edt fem 75 ml";"25"
"14671";"GUERLAIN A. ALLEGORIA Flora Nymphea edt fem 75 ml  2010";"32"
"16718";"GUERLAIN A. ALLEGORIA Lys Soleia edt fem 125 ml tester";"37"
"21071";"GUERLAIN A. ALLEGORIA NEROLIA BIANCA edt fem 100 ml";"31"
"17979";"GUERLAIN A. ALLEGORIA NEROLIA BIANCA edt fem 125 ml tester";"34"
"17550";"GUERLAIN COLOGNE DU PARFUMEUR eau de cologne 100 ml";"55"
"17387";"GUERLAIN HABIT ROUGE L'EAU men edt 100 ml tester";"28"
"12947";"GUERLAIN HOMME edt men 30 ml";"23"
"16170";"GUERLAIN IDYLLE  EAU SUBLIME lady edt  100 ml";"48"
"16175";"GUERLAIN IDYLLE  EAU SUBLIME lady edt  70 ml";"42"
"20191";"GUERLAIN IDYLLE  lady parfum  11 ml";"70"
"16539";"GUERLAIN IDYLLE  lady parfum  30 ml tester";"48"
"1014";"GUERLAIN INSOLENCE parfum 7,5 ml";"52"
"20852";"GUERLAIN L""HEURE BLEUE lady parfume 30 ml";"150"
"20853";"GUERLAIN L""HEURE BLEUE lady parfume 30 ml мятая";"140"
"18570";"GUERLAIN LA PETITE ROBE NOIRE  COUTURE lady edp 30 ml";"31"
"19874";"GUERLAIN LA PETITE ROBE NOIRE  COUTURE lady edp 30 ml мятые";"27"
"18569";"GUERLAIN LA PETITE ROBE NOIRE  COUTURE lady edp 50 ml";"37,5"
"19875";"GUERLAIN LA PETITE ROBE NOIRE  COUTURE lady edp 50 ml мятые";"35"
"17500";"GUERLAIN LA PETITE ROBE NOIRE  lady edp 30 ml";"32"
"19873";"GUERLAIN LA PETITE ROBE NOIRE  lady edp 30 ml мятые";"28"
"18073";"GUERLAIN LA PETITE ROBE NOIRE  lady edp 50 ml Limited";"42"
"16851";"GUERLAIN LA PETITE ROBE NOIRE  lady edt 100 ml";"49"
"17256";"GUERLAIN LA PETITE ROBE NOIRE  lady edt 100 ml tester";"40"
"20962";"GUERLAIN LA PETITE ROBE NOIRE  lady edt 100 ml не полн флакон";"32"
"16896";"GUERLAIN LA PETITE ROBE NOIRE  lady edt 50 ml";"43"
"18052";"GUERLAIN LA PETITE ROBE NOIRE  lady edt 50 ml Limited";"44"
"19002";"GUERLAIN LA PETITE ROBE NOIRE  lady edt 50 ml Limited подмятый";"42"
"17524";"GUERLAIN LA PETITE ROBE NOIRE  lady parfum 30 ml tester";"57"
"17336";"GUERLAIN LA PETITE ROBE NOIRE  lady parfum 7.5 ml";"55"
"20850";"GUERLAIN LA PETITE ROBE NOIRE  lady parfum 7.5 ml мятая";"45"
"17200";"GUERLAIN L`instant lady edp 30 ml подмятая";"28"
"1078";"GUERLAIN L`instant lady edp 80 ml tester";"33"
"19165";"GUERLAIN L`instant lady parfume 30 ml tester не долитый";"40"
"12901";"GUERLAIN L`instant lady parfume 7.5ml";"55"
"11809";"GUERLAIN L`instant men edt 75 ml";"31"
"20851";"GUERLAIN MITSOUKO lady parfum 30 ml";"150"
"17253";"GUERLAIN MITSOUKO lady parfum 7.5 ml";"75"
"14879";"GUERLAIN SAMSARA edt lady  50 ml";"37"
"11490";"GUERLAIN SAMSARA parfum lady  8 ml";"90"
"16326";"GUERLAIN SHALIMAR INITIAL L""EAU lady edt 60 ml";"45"
"1135";"GUESS edp fem 75 ml";"17"
"642";"Gian Marco Venturi  WOMAN edt 100ml";"15"
"11323";"HANAE MORI  COUTUR fem Parfum 30ml красная";"35"
"11318";"HANAE MORI COUTUR fem edt 50ml розовая";"20,5"
"19931";"HANAE MORI I HIM edt 50ml";"20"
"13628";"HANAE MORI бабочка  fem edt 100ml розовая tester";"38"
"12665";"HERMES 24 faubourg edt 100  ml tester";"42"
"18478";"HERMES 24 faubourg parfum 7,5 ml";"55"
"12303";"HERMES APRES LA MOUSSON  fem edt 100ml tester";"37,5"
"12300";"HERMES BELAMI men edt 100 ml tester";"75"
"20878";"HERMES Eau D'HERMES  100 ml tester";"38"
"20746";"HERMES Eau de MANDARINE AMBRE  edc 100 ml tester";"45"
"19610";"HERMES Eau de Narcisse Bleu fem edc 100 ml tester";"39"
"11464";"HERMES KELLY CALESHE lady edt 100 ml tester";"40"
"18480";"HERMES KELLY CALESHE lady edt 7.5 ml спрей";"65"
"1103";"HERMES MEDITERRANEE fem edt 100 ml rester";"44"
"11797";"HERMES MERVEILLES fem edt 100 ml tester";"44"
"13449";"HERMES MERVEILLES fem edt 50 ml+40 gel+40 lotion";"46"
"11800";"HERMES SUR LE NIL  fem edt 100 ml tester";"55"
"16807";"HERMES SUR LE TOIT fem edt 100 ml tester";"43,5"
"20099";"HERMES TERRE eau tres fraiche men edt 75 ml tester";"33"
"11799";"HERMES TERRE men edt 100 ml tester";"53"
"14083";"HERMES TERRE men parfum  75 ml tester";"53"
"21003";"I.Miyake L'Eau D'Issey  eau Fraich pour homme 100 ml tester";"25"
"17752";"I.Miyake L'Eau D'Issey ABSOLUE fem edp 90 ml tester";"28"
"19206";"I.Miyake L'Eau D'Issey NUIT 125 ml";"40,5"
"21035";"I.Miyake L'Eau D'Issey NUIT AUSTRAL EXPEDITION pour homme  125 ml tester";"30"
"18537";"I.Miyake L'Eau D'Issey SPORT pour homme  100 ml";"28"
"20797";"I.Miyake L'Eau D'Issey SPORT pour homme  50 ml tester";"16"
"12906";"I.Miyake L'Eau D'Issey fem edt 100 ml";"41"
"652";"I.Miyake L'Eau D'Issey pour homme  75 ml";"24,5"
"17786";"I.Miyake Le FEU D'Issey POUR L""ETE Summer fem edt 100 ml tester 14 год";"30"
"20696";"I.Miyake Le FEU D'Issey POUR L""ETE Summer fem edt 100 ml tester 15 год";"24"
"1121";"J.Lopes LIVE  lady edp 100 ml tester";"16"
"319";"J.Lopes LIVE LUXE lady edp 100 ml";"22"
"20111";"J.Lopes Rio GLOW lady edt 100 ml tester";"18"
"20131";"JEAN PAUL GAULTIER MONSIEUR men edt 100 ml tester";"25"
"20484";"JIL SANDER  SUN MEN edt 125 ml tester";"55"
"17204";"JOHN GALLIANO Perler-mor d'Amour eau fraiche lady edt 80 ml tester";"18"
"19027";"JOHN GALLIANO Perler-mor d'Amour lady edt 80 ml tester";"15,5"
"16534";"JULIETTE HAS a GUN ROMANTINA  lady edp 100 ml";"42"
"13907";"John Varvatos ARTISAN edt men 125 ml tester";"26"
"20880";"John Varvatos OUD edp men 125 ml";"60"
"17182";"John Varvatos STAR USA edt men 50 ml";"21"
"11847";"John Varvatos VINTAGE edt men 125 ml";"27,5"
"11724";"John Varvatos VINTAGE edt men 75 ml";"22"
"15751";"Juicy COUTURE COUTURE lady edp 100ml tester";"35"
"604";"Juicy COUTURE lady edp 100ml";"33,5"
"20549";"KENZO AMOUR  My LOVE lady edt 50ml NEW tester не полный";"20"
"18133";"KENZO AMOUR LEAU lady edt 70ml";"48"
"18136";"KENZO COULEUR JAUNE YELLOW edp lady  50 ml";"21"
"18135";"KENZO COULEUR ROSA PINC lady  50 ml";"21"
"18730";"KENZO COULEUR ROSA PINC lady  50 ml tester";"20"
"18192";"KENZO COULEUR ROSA PINC lady  50 ml мятая";"23"
"20605";"KENZO FLORALISTA edt  lady 50 ml tester";"27"
"13112";"KENZO FLOWER BY edp  lady 30 ml";"26,5"
"19900";"KENZO FLOWER IN THE AIR Summer edition edt lady 50 ml tester";"25"
"18643";"KENZO FLOWER IN THE AIR edp  lady 100 ml tester";"32"
"19094";"KENZO FLOWER IN THE AIR edt  lady 100 ml tester";"30"
"17033";"KENZO FLOWER TAG edp lady 50 ml tester";"31"
"18134";"KENZO FLOWER TAG edt  lady 100 ml";"53"
"16212";"KENZO FLOWER TAG edt  lady 50 ml tester";"29"
"17990";"KENZO L`EAU PAR COLORS Edition men edt 50 ml";"22"
"20285";"KENZO L`EAU PAR INDIGO lady edp 100 ml tester";"36"
"18988";"KENZO L`EAU PAR MIRROR Edition men edt 50 ml";"29"
"19276";"KENZO L`EAU PAR MIRROR Edition men edt 50 ml tester";"22"
"329";"KENZO L`EAU PAR lady edt 100 ml";"32"
"337";"KENZO L`EAU PAR lady edt 100 ml tester";"23,5"
"336";"KENZO L`EAU PAR men edt 100 ml tester";"24"
"20691";"KENZO L`EAU PAR men edt 50 ml подмятые";"18"
"16740";"KENZO L`EAU PAR""2"" men edt 100 ml";"35"
"16846";"KENZO L`EAU PAR""2"" men edt 100 ml tester";"27"
"17116";"KENZO L`EAU PAR""2"" men edt 30 ml мятая";"22"
"17298";"KENZO MADLY lady edp 30 ml";"25"
"17299";"KENZO MADLY lady edp 50 ml";"30"
"16933";"KENZO MADLY lady edt 30 ml";"20"
"16932";"KENZO MADLY lady edt 50 ml";"25"
"16914";"KENZO MADLY lady edt 80 ml";"35"
"17065";"KENZO MADLY lady edt 80 ml tester";"30"
"20596";"KENZO WILD Edition fem edt 50 ml tester";"21"
"15623";"KENZO WOODY BOISEE men edt 30 ml";"22"
"16862";"KENZO WOODY BOISEE men edt 50 ml";"28"
"20548";"KENZO pour HOMME SPORT EXTREME men edt 100 ml tester не полный";"20"
"17294";"KENZO pour HOMME SPORTmen edt 30 ml";"26"
"14329";"KENZO`EAU DE FLEUR de PRUNIER PLUM lady edt 50 ml";"22"
"13851";"KENZO`EAU DE FLEUR de soie silk lady edt 50 ml  tester";"22"
"19402";"KILIAN A TASTE of HEAVEN edp 100 tester без спрея(Absinthe Verte)";"183"
"17586";"KILIAN A TASTE of HEAVEN edp 50 tester(Absinthe Verte)";"170"
"17573";"KILIAN AMBER AOUD men edp 100 tester без спрея";"190"
"19393";"KILIAN AMBER AOUD men edp 50 tester";"180"
"19399";"KILIAN APPLY BRANDY edp 100 tester без спрея";"200"
"17585";"KILIAN BACK TO BLACK fem edp 50 tester(Aphrodisiac)";"160"
"19870";"KILIAN BAMBOO HARMONY  fem edp 50 tester";"160"
"19869";"KILIAN BAMBOO HARMONY MATISSE fem edp 50 tester";"145"
"19444";"KILIAN BAMBOO HARMONY fem edp 100 tester без спрея";"170"
"17584";"KILIAN BEYOND LOVE fem edp 50 tester(Prohibited)";"165"
"19447";"KILIAN BEYOND LOVE fem edp100 tester без спрея(Prohibited)";"200"
"19461";"KILIAN BLACK AUD fem edp 100 tester без спрея";"200"
"19866";"KILIAN BLACK AUD fem edp 50 tester";"190"
"19450";"KILIAN CRUEL INTENTIONS men edp 100 tester(Tempt me)";"190"
"17588";"KILIAN CRUEL INTENTIONS men edp 50 tester(Tempt Me)";"160"
"19923";"KILIAN ETERNAL OUD edp 100 tester без спрея";"200"
"20535";"KILIAN ETERNAL OUD edp 50 tester";"170"
"19920";"KILIAN EXTREME OUD edp 100 tester без спрея";"200"
"20665";"KILIAN EXTREME OUD edp 50 tester без спрея";"170"
"19491";"KILIAN FLOWER IMMORTALITY fem edp 100 tester без спрея";"165"
"17682";"KILIAN FORBIDDEN GAMES fem edp 100 tester(белый) без спрея";"185"
"19386";"KILIAN FORBIDDEN GAMES fem edp 50 tester";"160"
"19459";"KILIAN GOLD OUD fem edp 100 tester без спрея";"230"
"19865";"KILIAN GOLD OUD fem edp 50 tester";"200"
"19451";"KILIAN IMPERIAL TEA edp 100 tester без спрея";"180"
"21064";"KILIAN IMPERIAL TEA edp 50";"185"
"19384";"KILIAN IMPERIAL TEA edp 50 tester";"165"
"17680";"KILIAN IN THE CITY OF SIN edp 100 tester без спрея";"185"
"17574";"KILIAN INCENSE OUD men edp 100 tester без спрея";"190"
"19395";"KILIAN INCENSE OUD men edp 50 tester";"170"
"20668";"KILIAN LEMON IN ZEST (LUGANO)  edp 100 ml tester";"200"
"19400";"KILIAN LIASONS DANGEREUSES edp 100 ml tester без спрея(Typical me)";"180"
"17587";"KILIAN LIASONS DANGEREUSES edp 50 ml tester(Typical me)";"160"
"19398";"KILIAN LIGHT MY FIRE men edp 100 tester без спрея";"180"
"19389";"KILIAN LIGHT MY FIRE men edp 50 tester";"160"
"19492";"KILIAN LOVE  AND TEARS  fem edp 100 tester без спрея(Surrender)";"180"
"17442";"KILIAN LOVE  AND TEARS fem edp 50 tester(SURRENDER )";"140"
"19445";"KILIAN LOVE DONT BE SHY fem  edp 100ml tester без спрея";"169"
"17441";"KILIAN LOVE DONT BE SHY fem  edp 50 ml tester";"155"
"19404";"KILIAN MUSK OUD edp 100 tester без спрея";"190"
"19922";"KILIAN PEARL OUD edp 100 tester без спрея";"200"
"19443";"KILIAN PRELUDE OF LOVE edp 100 tester без спрея(Invitation)";"150"
"19458";"KILIAN PURE OUD edp 100 tester без спрея";"200"
"19396";"KILIAN PURE OUD edp 50 tester";"160"
"19405";"KILIAN SACRED WOOD edp 100 tester без спрея";"175"
"19872";"KILIAN SACRED WOOD edp 50 tester";"147"
"20667";"KILIAN SINGLE MALT edp 100 tester";"200"
"19390";"KILIAN SMOKE FOR THE SOUL men edp 50 tester";"165"
"19494";"KILIAN STRAIGHT TO HEAVEN LEMON men edp 100 tester без спрея";"190"
"19446";"KILIAN STRAIGHT TO HEAVEN men edp 100 tester без спрея(White Cristal)";"200"
"17443";"KILIAN SWEET REDEMPTION  fem edp 50 tester(The End)";"160"
"17499";"KILIAN SWEET REDEMPTION fem edp 100 tester(The End)";"180"
"20666";"KILIAN VOULEZ-VOUS cousher avec MOI edp 100 tester";"180"
"20537";"KILIAN VOULEZ-VOUS cousher avec MOI edp 50 tester";"177"
"19401";"KILIAN WATER CALLIGRAPHY edp 100 tester без спрея";"175"
"17589";"KILIAN WATER CALLIGRAPHY edp 50 tester";"145"
"18206";"KIM KARDASHIAN GLAM fem edp 100";"31,5"
"20785";"Kennet Cool  REACTION T SHIRT men edt 100 ml";"30"
"20407";"Kennet Cool RSVP men edt 100 ml";"31"
"363";"LALIQUE ENCRE NOIRE men edt 100 ml";"26,5"
"15909";"LALIQUE FLUER de CRISTAL lady edp 100 ml tester";"26"
"17067";"LALIQUE HOMMAGE a""l homme edt 100 ml tester";"22"
"17937";"LALIQUE L""AMOUR edp 100 ml  tester";"24,5"
"364";"LALIQUE LE PARFUM edp 100 ml красный";"31"
"361";"LALIQUE PERLES lady edp 100 ml";"36"
"360";"LALIQUE PERLES lady edp 100 ml tester";"22,5"
"18028";"LALIQUE SATINE fem edp 50 ml";"38,5"
"13335";"LALIQUE WHITE men edt 125 ml";"28"
"957";"LALIQUE(лошадь) men edp 75 ml tester";"22"
"13746";"LALIQUE(лошадь) men edt 75 ml";"42"
"14690";"LALIQUE(лошадь) men edt 75 ml tester";"22"
"12725";"LANCOME Cuir de lancome edp 50 ml";"45"
"20120";"LANCOME LA VIE EST BELLE INTENSE edp 75 ml tester НОВИНКА";"42"
"18495";"LANCOME LA VIE EST BELLE LEGERE edp 75 ml tester НОВИНКА";"42"
"17141";"LANCOME LA VIE EST BELLE edp 30 ml  НОВИНКА";"33,5"
"20539";"LANVIN ECLAT D`ARPEGE de FLEURS lady edp 100 ml";"27,5"
"19645";"LANVIN ECLAT D`ARPEGE de FLEURS lady edp 100 ml tester";"19,5"
"21079";"LANVIN ECLAT D`ARPEGE de FLEURS lady edp 50 ml";"20"
"410";"LANVIN ECLAT D`ARPEGE lady edp 100 ml";"28,5"
"414";"LANVIN ECLAT D`ARPEGE lady edp 100 ml tester";"19,5"
"412";"LANVIN ECLAT D`ARPEGE lady edp 30 ml";"14,5"
"411";"LANVIN ECLAT D`ARPEGE lady edp 50 ml";"20"
"12415";"LANVIN JEANNE lady edp 100 ml tester";"18"
"15436";"LANVIN MARRY ME lady edp 75 ml";"24,5"
"14895";"LANVIN MARRY ME lady edp 75 ml tester";"21"
"18009";"LANVIN ME lady edp 80 ml tester";"19"
"11966";"LANVIN Rumeur 2 ROSE lady edp 100 ml";"22,5"
"418";"LANVIN Rumeur 2 ROSE lady edp 100 ml tester";"18,5"
"417";"LANVIN men edt 100 ml tester";"17,5"
"15087";"LAURA  ROSA edp 75 ml tester";"33"
"16993";"LAURA  VENEZIA  fem edp 75 ml";"46"
"19151";"LOBOGAL pour ELLE edp 100 ml  золотой";"48"
"432";"LOBOGAL pour ELLE edp 100 ml tester золотой";"44"
"18936";"LOBOGAL pour ELLE edp 100 ml Мешок золотой";"48"
"18038";"LOBOGAL pour HOMME edt 100 ml  серебро в мешочке";"48"
"433";"LOBOGAL pour HOMME edt 100 ml tester серебро";"44"
"18529";"LOBOGAL pour LUI edt 100 ml  серебро";"48"
"17350";"LOEWE  AIRE SENSUAL  lady edt 30 ml";"25"
"16847";"LOEWE  AIRE SENSUAL  lady edt 75 ml";"55"
"17349";"LOEWE 7  NATURAL men edt 50 ml мятая";"35"
"16395";"LOEWE AGUA DE mediterraneo lady edt 100 ml tester";"34"
"19466";"LOEWE Pour Homme SPORT edt 150ml tester";"32"
"20788";"LOEWE QUIZAS QUIZAS PASION lady edt 100 ml мят";"44"
"12074";"LOEWE QUIZAS QUIZAS lady edp 100 ml tester";"43,5"
"13336";"LOEWE SOLO men edt 75ml";"42"
"15000";"LOEWE SOLO men edt 75ml tester";"31"
"15247";"LUBIN NUIT de LONGCHAMP fem edp 100 ml tester";"61"
"19822";"La Perla J*AIME Peony Blossom lady edt 100 ml tester";"21,5"
"19821";"La Perla Just Presious  lady edp 100 ml tester";"23"
"20592";"MARK BUXTON collection SLEEPING WITH GHOSTS edp 100 ml";"65"
"19683";"MEXX  ENERGIZING fem edt 30 ml tester";"10"
"18969";"MEXX  ENERGIZING men  edt 50 ml tester";"12"
"17596";"MEXX MAGNETIC men edt 75 ml tester";"10,5"
"17598";"MEXX PURE  men edt 75 ml tester";"10,5"
"20993";"MIU MIU  fem edp 30 ml";"25,5"
"20422";"MIU MIU  fem edp 50 ml";"35,5"
"12909";"MOLECULE 01 edp men\fem 100 ml";"58"
"15170";"MOLECULE 02 edp men\fem 100 ml";"58"
"13897";"MOLECULE ESCENTRIC 01 edp men\fem 100 ml";"58"
"13925";"MOLECULE ESCENTRIC 02 edp men\fem 100 ml";"65"
"16292";"MOLECULE ESCENTRIC 03 edp men\fem 100 ml";"55"
"16293";"MOLECULE INTELLIGENCE & FANTASY edp men\fem 100 ml";"110"
"16635";"MOLECULE KINSKI  edt men\fem 100 ml";"62"
"18483";"MOLECULE PAPER PASSION edt fem 50 ml";"62"
"18015";"MOLINARD HOMME || men edt 120 ml";"45"
"20847";"MONT BLANC Homme EXCEPTIONNEL men edt50 ml";"18,5"
"11729";"MONT BLANC INDIVIDUEL men edt50 ml";"17,5"
"20156";"MONT BLANC LEGEND EDITION fem edt 50 ml";"19,5"
"15824";"MONT BLANC PRESENCE  men edt 50 ml";"18,5"
"17632";"MONTALE AMBER & SPICES fem edp 100 ml";"55"
"17702";"MONTALE AMBER & SPICES fem edp 50 ml";"40"
"18355";"MONTALE AOUD  AMBER  fem edp 100 ml";"52"
"18356";"MONTALE AOUD  AMBER  fem edp 50 ml";"38"
"17604";"MONTALE AOUD BLOSSOM fem edp 100 ml";"50"
"17703";"MONTALE AOUD BLOSSOM fem edp 50 ml";"44"
"17634";"MONTALE AOUD DAMASCUS fem edp 100 ml";"53"
"18376";"MONTALE AOUD DAMASCUS fem edp 50 ml";"48"
"17635";"MONTALE AOUD EVER fem edp 100 ml";"60"
"17605";"MONTALE AOUD FLOWERS fem edp 100 ml";"56"
"18290";"MONTALE AOUD GREEDY  fem edp 100 ml";"48"
"20661";"MONTALE AOUD LAGOON fem edp 100 ml не резаный";"61"
"20872";"MONTALE AOUD LAVENDER fem edp 100 ml";"50"
"19075";"MONTALE AOUD MELODY fem edp 100 ml";"55"
"18357";"MONTALE AOUD QUEEN ROSES fem edp 100 ml";"63"
"17640";"MONTALE AOUD RED FLOWERS fem edp 100 ml";"63"
"18001";"MONTALE AOUD ROSES PETALS fem edp 100 ml";"61"
"18032";"MONTALE AOUD ROSES PETALS fem edp 50 ml";"45"
"17641";"MONTALE AOUD SAFRAN fem edp 100 ml";"66"
"17642";"MONTALE AOUD SHINY fem edp 100 ml";"75"
"19152";"MONTALE AOUD SHINY fem edp 50 ml";"48"
"17644";"MONTALE AROMATIC LIME fem edp 100 ml";"52"
"17645";"MONTALE ATTAR fem edp 100 ml";"62"
"18381";"MONTALE ATTAR fem edp 50 ml";"41"
"17607";"MONTALE BLACK AOUD fem edp 100 ml не резаный";"56"
"17805";"MONTALE BLACK AOUD fem edp 50 ml";"42"
"19296";"MONTALE BOISE FRUITE fem edp 100 ml tester";"50"
"17646";"MONTALE BOISE FRUITE fem edp 100 ml не резаный";"59"
"17647";"MONTALE CANDY ROSE fem edp 100 ml";"56"
"17610";"MONTALE CHOKOLATE GREEDY fem edp 100 ml";"49"
"17611";"MONTALE CHYPRE FRUITE fem edp 100 ml";"52"
"17945";"MONTALE CHYPRE VANILLE fem edp 50 ml";"38"
"17648";"MONTALE CRYSTAL FLOWERS fem edp 100 ml";"53"
"21084";"MONTALE DARK PURPLE fem edp 100 ml";"54"
"18018";"MONTALE DARK PURPLE fem edp 100 ml не резаный";"57"
"21085";"MONTALE FOUGERES MARINES fem edp 100 ml tester";"46"
"21086";"MONTALE FRUITS OF THE MUSK fem edp 100 ml tester";"47"
"18383";"MONTALE FULL INCENSE fem edp 50 ml";"42"
"17653";"MONTALE GINGER MUSK fem edp 100 ml";"49"
"17615";"MONTALE GOLDEN AOUD  fem edp 100 ml";"54"
"17745";"MONTALE GOLDEN AOUD  fem edp 50 ml";"41"
"21087";"MONTALE INTENSE CAFE   fem edp 100 ml";"58"
"20717";"MONTALE INTENSE CAFE   fem edp 100 ml tester";"52"
"18292";"MONTALE INTENSE CAFE   fem edp 100 ml не резаный";"65"
"17617";"MONTALE MANGO MANGA  fem edp 100 ml";"54"
"18114";"MONTALE MOON AOUD fem edp 100 ml";"64"
"18115";"MONTALE MOON AOUD fem edp 50 ml";"45"
"17618";"MONTALE MUKHALAT  fem edp 100 ml";"49"
"17657";"MONTALE ORIENT EXTREME fem edp 100 ml";"63"
"18368";"MONTALE ORIENT EXTREME fem edp 50 ml";"40"
"18367";"MONTALE ORIGINAL AOUD fem edp 50 ml";"46"
"20662";"MONTALE OUDMAZING fem edp 100 ml не резаный";"60"
"19335";"MONTALE PINK EXTASY fem edp 100 ml не резаный";"54"
"17660";"MONTALE POWDER FLOWERS fem edp 100 ml";"53"
"21081";"MONTALE RED VETYVER fem edp 100 ml";"60"
"20228";"MONTALE ROSES MUSK Intense fem edp 100 ml не резаный";"57"
"21059";"MONTALE ROSES MUSK fem edp 100 ml";"62"
"18403";"MONTALE ROSES MUSK fem edp 100 ml tester";"55"
"17663";"MONTALE ROSES MUSK fem edp 100 ml старый дизайн не резаный";"57"
"19336";"MONTALE ROSES NIGHT fem edp 100 ml";"54"
"18310";"MONTALE SLIVER AOUD fem edp 50 ml";"43"
"17667";"MONTALE SO FLOWERS fem edp 100 ml";"54"
"18285";"MONTALE SOLEIL DE CAPRI fem edp 100 ml";"55"
"21088";"MONTALE SOLEIL DE CAPRI fem edp 100 ml tester";"48"
"17668";"MONTALE SOLEIL DE CAPRI fem edp 50 ml";"36"
"18385";"MONTALE STEAM AOUD fem edp 50 ml";"38"
"17621";"MONTALE SUNSET FLOWERS fem edp 100 ml";"54"
"18372";"MONTALE TAIF ROSES fem edp 100 ml";"64"
"18373";"MONTALE TAIF ROSES fem edp 50 ml";"44"
"20663";"MONTALE TROPICAL WOOD edp 100 ml не резаный";"55"
"21057";"MONTALE TROPICAL WOOD edp 50 ml не резаный";"40"
"20718";"MONTALE VANILLA ABSOLY fem edp 100 ml tester";"56"
"17689";"MONTALE VANILLA ABSOLY fem edp 100 ml не резаный";"60"
"17670";"MONTALE VANILLA EXTASY fem edp 100 ml не резаный";"58"
"17622";"MONTALE VELVET FLOWERS fem edp 100 ml не резаный";"59"
"17671";"MONTALE VETIVER DES SABLES fem edp 100 ml";"54"
"18275";"MONTALE WILD PEARS   fem edp 100 ml tester";"47"
"17625";"MONTALE WILD PEARS   fem edp 100 ml не резаный";"57"
"17626";"MONTALE WOOD & SPICES fem edp 100 ml";"55"
"17748";"MONTALE WOOD & SPICES fem edp 50 ml";"44"
"15643";"MORGAN LIGHT HEART fem edt 60 ml";"25"
"15642";"MORGAN SWEET PARADISE fem edt 100 ml";"25"
"13042";"MOSCHINO C&C lady edt 100 ml tester";"22"
"18471";"MOSCHINO CHIC PETALS lady edt 100 ml tester";"14"
"18734";"MOSCHINO FOREVER SAILING  men edt 100 ml tester";"20"
"15964";"MOSCHINO FOREVER men edt 100 ml tester";"16"
"20695";"MOSCHINO FRESH Couture lady edt 100 ml tester";"27"
"12492";"MOSCHINO FUNNY lady edt 100 ml";"30"
"13062";"MOSCHINO GLAMOUR fem edp 100 ml tester";"17"
"17061";"MOSCHINO PINK BOUQUETlady edt 100ml tester";"14"
"19517";"MOSCHINO STARS fem edp 100 ml tester";"16,5"
"14966";"MOSCHINO TOUJOURS GLAMOUR fem edt 30 ml";"19"
"15064";"MOSCHINO TOUJOURS GLAMOUR fem edt 50 ml";"26"
"469";"MOSCHINO UOMO men edt 125 ml";"22,5"
"18980";"Mandarina Duck ALL OF ME WOMAN lady edt 100 ml tester";"22"
"15740";"Marc Jacobs DAISY  fem edp 50 ml";"29"
"12110";"Marc Jacobs DAISY  fem edt 100 ml";"37"
"12109";"Marc Jacobs DAISY  fem edt 50 ml";"25,5"
"18138";"Marc Jacobs HONEY fem edp 30 ml";"35"
"20261";"Marc Jacobs SPLASH COTTON edt 100 ml";"22"
"20262";"Marc Jacobs SPLASH CUCUMBER edt 100 ml";"22"
"20597";"MyParfumes DARK OUD edp 100 ml";"32"
"17009";"NARCISO RODRIGUEZ ESSENCE EAU de MUSC lady edt 35 ml";"39"
"16848";"NARCISO RODRIGUEZ ESSENCE EAU de MUSC lady edt 75 ml";"55"
"17492";"NARCISO RODRIGUEZ L'eau lady edt 30 ml";"36"
"17493";"NARCISO RODRIGUEZ L'eau lady edt 50 ml";"44"
"21065";"NARCISO RODRIGUEZ Labsolu lady edp 50 ml";"50"
"16789";"NARCISO RODRIGUEZ Musc collection women edp 100 ml";"60"
"15235";"NARCISO RODRIGUEZ Musc collection women edp 50 ml";"44"
"20617";"NARCISO RODRIGUEZ lady edt 7.5 ml";"7,5"
"483";"NINA RICCI LOVE IN PARIS lady edp 30 ml";"15,5"
"484";"NINA RICCI LOVE IN PARIS lady edp 50 ml";"23,5"
"738";"NINA RICCI NINA lady edt 80 ml tester";"32,5"
"16677";"NINA RICCI RICCI DANCING RIBBON lady edp  50 ml tester LIMITED";"20"
"19989";"Nu_be 16 S Sulphur edp 100 ml";"75"
"20237";"Nu_be 8 O Oxygen edp 100 ml tester";"65"
"19985";"Nu_be 80 Hg Mercury edp 100 ml";"75"
"20833";"OLFACTIVE PANORAMA edp 100 ml tester";"85"
"20826";"OLFACTIVE STUDIO AUTOPORTRAIT edp 100 ml tester";"81"
"19792";"OLFACTIVE STUDIO STILL LIFE edp 100 ml";"85"
"20831";"OLFACTIVE STUDIO STILL LIFE edp 100 ml tester";"80"
"20792";"OROS  men edt 50 ml";"55"
"20790";"OROS FLEUR fem edp 50 ml";"55"
"20791";"OROS LIMITED EDITION men edp 50 ml";"55"
"20793";"OROS fem edp 50 ml";"55"
"19719";"Oscar de La Renta INTRUSION lady edp 100 ml";"30"
"19293";"PACO RABANN PACO men edt 100 ml";"36"
"18753";"PACO RABANN PACO men edt 100 ml tester";"20"
"20825";"PACO RABANNE 1 MILLION COLOGNE men edt 125 ml";"42"
"12783";"PACO RABANNE 1 MILLION men edt 50 ml";"33"
"18276";"PACO RABANNE ULTRAVIOLET lady edp 80 ml";"36,5"
"491";"PACO RABANNE ULTRAVIOLET lady edp 80 ml tester";"29,5"
"16725";"PACO RABANNE XS BLACK L'EXCES lady edp 30 ml";"30"
"16579";"PACO RABANNE XS BLACK L'EXCES lady edp 50 ml";"40"
"501";"PALOMA PICASSO fem edp 100 ml";"48"
"20984";"PARFUMS MDCI AMBRE TOPKAPI  edp 100 ml tester";"190"
"20985";"PARFUMS MDCI CHYPRE PALATIN  edp 100 ml tester";"190"
"18790";"PARFUMS MDCI CHYPRE PALATION  edp 60 ml статуэтка";"280"
"20991";"PARFUMS MDCI CIO CIO SAN edp 100 ml tester";"190"
"18792";"PARFUMS MDCI CUIR GARAMANTE  edp 75 ml статуэтка";"280"
"20987";"PARFUMS MDCI CUIR GARAMANTE  edp100 ml tester";"190"
"20980";"PARFUMS MDCI FETES PERSANES edp 100 ml tester";"190"
"20986";"PARFUMS MDCI INVASION BARBARE edp 100 ml tester";"190"
"18789";"PARFUMS MDCI INVASION BARBARE edp 75 ml статуэтка";"240"
"20989";"PARFUMS MDCI LA BELLE HELENE edp 100 ml tester";"190"
"20988";"PARFUMS MDCI LA BELLE HELENE edp 75 ml Статуя";"240"
"20981";"PARFUMS MDCI LES INDES GALANTES edp 100 ml tester";"190"
"19052";"PARFUMS MDCI Le RIVAGE des SYRTES edp 75 ml Статуя";"290"
"20990";"PARFUMS MDCI NUIT ANDALOUSE edp 100 ml tester";"190"
"20983";"PARFUMS MDCI PECHE CARDINAL edp 100 ml tester";"190"
"20982";"PARFUMS MDCI ROSE de SIWA edp 100 ml tester";"190"
"20992";"PARFUMS MDCI VEPRES SICILIENNES edp 100 ml tester";"190"
"18937";"PARFUMS de MARLY DARCY men edp 75 ml";"100"
"19138";"PARFUMS de MARLY GALLOWAY  men edp 125 ml";"97"
"19139";"PARFUMS de MARLY GALLOWAY  men edp 125 ml tester";"81"
"19109";"PARFUMS de MARLY ISPAZON men edT 125 ml tester";"76"
"18763";"PARFUMS de MARLY KUHUYAN men edp 125 ml";"100"
"18947";"PARFUMS de MARLY SAFANAD  edp 75 ml";"99,5"
"18948";"PARFUMS de MARLY SAFANAD  edp 75 ml tester";"76"
"18652";"PERRIS Monte Carlo MUSK EXTREME edp100 ml tester";"60"
"14383";"PORSCHE design THE ESSENCE men edt 50 ml";"20"
"21077";"PRADA  CANDY Florale fem edt 50 ml";"33"
"19113";"PRADA  CANDY Florale fem edt 80 ml tester";"35"
"16126";"PRADA  CANDY fem edp 30 ml";"39,5"
"20701";"Penhaligon`s AMARANTHINE  edp 100 ml";"65"
"20095";"Penhaligon`s ARTEMISIA  edp 1.5 ml";"3"
"20097";"Penhaligon`s AS SAWIRA edp 1.5 ml";"3"
"20077";"Penhaligon`s AS SAWIRA edp 100 ml";"70"
"20078";"Penhaligon`s AS SAWIRA edp 100 ml tester";"45"
"20086";"Penhaligon`s BAYOLEA edt 1.5 ml";"3"
"20069";"Penhaligon`s BAYOLEA edt 100 ml";"55"
"20706";"Penhaligon`s CASTILE  edt 100 ml";"55"
"20083";"Penhaligon`s EMPRESSA edt 1.5 ml";"3"
"20071";"Penhaligon`s EMPRESSA edt 100 ml";"70"
"20098";"Penhaligon`s ENDYMION cologne 1.5 ml";"3"
"20085";"Penhaligon`s HALFETI edp 1.5 ml";"3"
"20089";"Penhaligon`s IRIS PRIMA edP 1.5 ml";"3"
"20090";"Penhaligon`s JUNIPER SLING  edt 1.5 ml";"3"
"20094";"Penhaligon`s LEVANTIUM edt 1.5 ml";"3"
"20073";"Penhaligon`s LEVANTIUM edt 100 ml";"75"
"20074";"Penhaligon`s LEVANTIUM edt 100 ml tester";"35"
"20084";"Penhaligon`s LOTHAIR edt 1.5 ml";"3"
"20075";"Penhaligon`s LOTHAIR edt 100 ml";"70"
"20704";"Penhaligon`s LP №9 ladies edt 100 ml";"62"
"20091";"Penhaligon`s MALABAH edp 1.5 ml";"3"
"20087";"Penhaligon`s OPUS 1870  edt 1.5 ml";"3"
"20088";"Penhaligon`s QUERCUS men cologne 1.5 ml";"3"
"14574";"Penhaligon`s QUERCUS men cologne 100 ml";"65"
"20092";"Penhaligon`s SARTORIAL edt 1.5 ml";"3"
"20096";"Penhaligon`s VAARA edp 1.5 ml";"3"
"20067";"Penhaligon`s VAARA edp 100 ml";"55"
"20093";"Penhaligon`s №33 eau de cologne 1.5 ml";"3"
"20702";"Penhaligon`s №33 eau de cologne 100 ml";"77"
"16832";"RALPH LAUREN BIG PONY 1 men edt 100 ml tester";"26"
"16702";"RALPH LAUREN BIG PONY 2 men edt 125 ml tester";"26"
"20562";"RALPH LAUREN BIG PONY 2 men edt 125 ml tester не полный";"18"
"13033";"RALPH LAUREN POLO men edt 118 ml tester";"56"
"12242";"RALPH LAUREN RALPH fem edt 100 ml";"49"
"14838";"RALPH LAUREN RALPH fem edt 50 ml";"34"
"19716";"RALPH LAUREN ROMANCE MIDNIGHT fem edp 100 ml tester";"44"
"20786";"RALPH LAUREN ROMANCE MIDNIGHT fem edp 50 ml";"39"
"13244";"RALPH LAUREN ROMANCE fem edp 100 ml";"54"
"12352";"RALPH LAUREN ROMANCE fem edp 100 ml tester";"41,5"
"12199";"RALPH LAUREN ROMANCE fem edp 30 ml";"28"
"12628";"RALPH LAUREN ROMANCE fem edp 50 ml";"42,5"
"19369";"RAMON BEJAR Jasmine Maat men edp 75";"110"
"15880";"RASPUTIN men edt 100 ml";"45"
"17078";"RICHMOND JOHN VIVA ROCK lady edt 100 ml tester";"24"
"17171";"RICHMOND JOHN VIVA ROCK lady edt 50 ml";"30"
"19689";"RICHMOND JOHN X  men edt 75ml tester";"17"
"19926";"RICHMOND JOHN X lady edt 75ml";"22"
"18597";"ROBERT PIGUET FUTUR edp lady 100 ml";"68"
"18598";"ROBERT PIGUET FUTUR edp lady 100 ml terter";"60"
"17780";"ROBERT PIGUET NOTES edp lady  100 ml tester";"62"
"17472";"ROCHAS MUSE DE ROCHAS lady edp 50 ml";"35"
"18844";"ROCHAS aquawoman lady edt 50 ml недолитый";"105"
"19918";"ROUGE BUNNY ROUGE CYNEFIN edp 50 ml";"64"
"19911";"ROUGE BUNNY ROUGE EMBERS edp 50 ml";"75"
"19915";"ROUGE BUNNY ROUGE SILVAN edp 50 ml";"75"
"19980";"ROUGE BUNNY ROUGE TENERA edp 50 ml";"75"
"19917";"ROUGE BUNNY ROUGE VESPERS edp 50 ml";"70"
"20868";"ROYAL VEKS Gold Black edp  100 ml";"100"
"20869";"ROYAL VEKS Gold White edp  100 ml";"100"
"19839";"Roberto Cavalli  EXOTICA fem edt 75 ml tester";"24"
"20004";"Roberto Cavalli  JUST GOLD men edp 90 ml tester";"23"
"15627";"Roberto Cavalli  JUST men edt 60 ml";"23"
"16782";"S.FERRAGAMO  ATTIMO HOMME edt 100 ml tester";"16"
"15231";"S.FERRAGAMO F by fem edp 90 ml";"19"
"691";"S.FERRAGAMO F by men edt 100 ml tester";"17"
"14620";"S.FERRAGAMO INCANTO  BLOOM lady edt 100 ml tester";"16"
"14996";"S.FERRAGAMO INCANTO  BLOOM lady edt 50 ml";"21"
"19815";"S.FERRAGAMO INCANTO AMITY lady edt 100 ml tester";"16,5"
"18881";"S.FERRAGAMO INCANTO AMITY lady edt 50 ml";"19"
"535";"S.FERRAGAMO INCANTO CHARMS lady edt 100 ml tester";"16"
"533";"S.FERRAGAMO INCANTO SHINE lady edt 100 ml";"23,5"
"532";"S.FERRAGAMO INCANTO SHINE lady edt 30 ml";"11,5"
"531";"S.FERRAGAMO INCANTO SHINE lady edt 50 ml";"16,5"
"12597";"S.FERRAGAMO SUBTIL men edt 100 ml tester";"20"
"14685";"S.FERRAGAMO men edt 100 ml";"23"
"520";"SARA J.P. LOVELY lady edp 100 ml";"24"
"518";"SARA J.P. LOVELY lady edp 50 ml";"17"
"14990";"SERGE LUTENS CLAIR DE MUSC edp fem 50 ml";"69"
"16181";"SERGE LUTENS VITRIOL D""CEILLET edp fem 50 ml";"60"
"12499";"SERGIO TACCHINI OZONE MEN edt 75 ml";"17"
"551";"SERGIO TACCHINI OZONE lady edt 50 ml";"13"
"12456";"SERGIO TACCHINI OZONE lady edt 75 ml";"17"
"15460";"SHAIK № 77 men 100 ml tester";"105"
"20700";"SHAKIRA  Rock  fem edt 80 ml tester";"9"
"20240";"SHAKIRA By fem edt 80 ml tester";"9"
"20699";"SHAKIRA LOVE Rock B fem edt 80 ml tester";"9"
"21036";"SHISEIDO ENERGIZING lady 100ml красный Без спрея";"31"
"11575";"SHISEIDO VOCALISE fem edp 50 ml";"180"
"20994";"SHISEIDO ZEN EVER BLOOM fem edp  30 ml";"33,5"
"20244";"SHISEIDO ZEN SUN Freiche men edt 100 ml  tester";"28"
"12598";"SHISEIDO ZEN fem edp 100 ml ЗОЛОТОЙ";"56"
"12602";"SHISEIDO ZEN fem edp 30 ml ЗОЛОТОЙ";"30"
"16304";"SHISEIDO ZEN men WHITE HEAT EDITION edt 50 ml";"32"
"19230";"SISLEY EAU DE TROPICALE fem edt 100 ml";"65"
"20780";"SISLEY SOIR D'ORIENT lady edp 50 ml";"83"
"16006";"SISLEY eau D'IKAR men edt 50 ml";"43"
"19604";"SOSPIRO  MISTERIOSO edp 100 ml";"130"
"19600";"SOSPIRO ADAGIO edp 100 ml";"130"
"18896";"SOSPIRO ADAGIO edp 100 ml tester";"130"
"19601";"SOSPIRO ANDANTE edp 100 ml";"130"
"18893";"SOSPIRO ANDANTE edp 100 ml tester";"120"
"20884";"SOSPIRO DUETTO edp 100 ml";"130"
"19603";"SOSPIRO GRAZIOSO edp 100 ml";"130"
"12842";"T.Mugler Angel  ALIEN edp 60ml";"40,5"
"11747";"T.Mugler Angel  ANGEL edp  25ml";"29"
"11970";"T.Mugler Angel  ANGEL edp  50ml";"37,5"
"19592";"T.Mugler Angel  ANGEL edp  75ml";"46"
"19888";"T.Mugler Angel A men  PURE ENERGY edt 100ml";"30"
"16899";"T.Mugler Angel A men edt 100ml";"43"
"21089";"T.Mugler Angel A men edt 100ml  запаска";"40"
"20977";"TIZIANA TETENZI AL CONTARIO edp 50ml tester";"75"
"18326";"TIZIANA TETENZI GOLD ROSE OUDH edp 100ml";"90"
"18330";"TIZIANA TETENZI GOLD ROSE OUDH edp 100ml tester";"75"
"18507";"TIZIANA TETENZI LILLIPUR edp 100ml tester";"65"
"18325";"TIZIANA TETENZI ХIХ march  edp 100ml";"90"
"18244";"TIZIANA TETENZI ХIХ march  edp 100ml tester";"75"
"16488";"TOM Ford  AZURE LIME edp lady 50ml";"120"
"16487";"TOM Ford  CHAMPACA ABSOLUTE edp lady 50ml";"125"
"20931";"TOM Ford  FLEUR de CHINE edp lady 50ml";"135"
"19472";"TOM Ford  FLEUR de CHINE edp lady 50ml tester";"110"
"20922";"TOM Ford  ITALIAN CYPRESS edp lady 50ml";"130"
"20933";"TOM Ford  ITALIAN CYPRESS edp lady 50ml без целлоф.";"125"
"20925";"TOM Ford  Jonquille De Nuit lady edp 50ml";"135"
"18800";"TOM Ford  Jonquille De Nuit lady edp 50ml tester";"120"
"20934";"TOM Ford  Jonquille De Nuit lady edp 50ml без целлоф.";"130"
"20926";"TOM Ford  LAVENDER PALM lady edp 50ml";"130"
"20927";"TOM Ford  LAVENDER PALM lady edp 50ml без целлоф.";"125"
"19181";"TOM Ford  NEROLI PORTOFINO edp lady 50ml";"120"
"18694";"TOM Ford  NOIR men edp 100 ml";"83"
"20498";"TOM Ford  OUD FLEUR edp lady 50ml tester";"80"
"19210";"TOM Ford  RIVE D'AMBRE edp lady 50ml";"125"
"20929";"TOM Ford  SANTAL BLUSH edp lady 50ml";"130"
"18874";"TOM Ford  SHAGHAI LILY edp lady 50ml tester";"80"
"20930";"TOM Ford BLACK  MEN edt 50 ml+75 мл af/bal потертая коробка";"50"
"21061";"TOM Ford BLACK ORCHID lady 50ml+75ml эмульсия Потертая коробка не долитый";"50"
"19420";"TOMMY Hilfiger  EST 1985 man30 ml";"15"
"20545";"TOMMY Hilfiger  TOMMY edt cologne 100 ml tester";"26"
"20005";"TOMMY Hilfiger  TOMMYcologne 100 ml tester";"24"
"19307";"TRUSSARDI A WAY lady edt 100 ml tester";"21"
"19248";"TRUSSARDI A WAY men edt 100 ml tester";"20"
"19519";"TRUSSARDI BLUE LAND men 100 ml tester";"27"
"17093";"TRUSSARDI DELIKATE ROSA edt fem  100 ml";"36"
"17131";"TRUSSARDI DELIKATE ROSA edt fem  100 ml tester";"27,5"
"16169";"TRUSSARDI DONNA edp fem  100 ml Новинка2011";"32,5"
"16343";"TRUSSARDI DONNA edp fem  100 ml Новинка2011 tester";"27,5"
"12482";"TRUSSARDI DONNA edp fem  50 ml Новинка2011";"23"
"13684";"UNGARO - 3 man edt 100 ml";"20"
"12574";"UNGARO - 3 man edt 100 ml tester";"16"
"17468";"VALENTINO VALENTINA  ACQVA FLOREALE lady  edt 50 ml";"24"
"17458";"VALENTINO VALENTINA  ACQVA FLOREALE lady  edt 80 ml";"33"
"16915";"VALENTINO VALENTINA ASSOLUTO lady edp 50 ml";"35"
"16164";"VALENTINO VALENTINA lady edp 30 ml";"28,5"
"16151";"VALENTINO VALENTINA lady edp 50 ml";"38,5"
"16122";"VERA WANG ANNIVERSARY lady edp 50 ml";"31"
"14172";"VERA WANG TRULY PINK lady edp 50 ml мятый";"30"
"11925";"VERA WANG lady edp 100 ml tester";"25"
"16615";"VERA WANG men edt 100 ml tester";"27"
"586";"VERSACE BRIGHT CRISTAL lady edT 50 ml";"30"
"587";"VERSACE BRIGHT CRISTAL lady edT 90 ml";"39,5"
"18231";"VERSACE BRIGHT CRISTAL lady edT 90 ml tester Без крышки";"26"
"582";"VERSACE CRISTAL NOIR lady edp 50 ml";"30"
"578";"VERSACE EAU FRAICHE men edt 100 ml tester";"27,5"
"576";"VERSACE EAU FRAICHE men edt 50 ml";"25"
"12294";"VERSACE POUR HOMME men edt 50 ml";"26"
"13538";"VERSACE VERSENSE woman edt 100 ml";"39"
"13409";"VERSACE VERSENSE woman edt 50 ml";"30,5"
"14702";"VERSACE VERSUS woman edt 50 ml";"28"
"581";"VERSACE WHITE woman edp 100 ml  tester";"19,5"
"19528";"VERSACE YELLOW DIAMOND INTENSE lady edp 90 ml tester";"22,5"
"694";"VERSACE the DREAMER men edT100 ml tester";"25"
"11475";"VERSACE woman edp 50 ml";"21"
"13147";"VERSACE woman edp 50 ml tester";"17"
"18736";"VERSUS TIME FOR  PLEASURE  lady edt 125 ml tester";"40"
"18574";"VERSUS TIME FOR ACTION  edt 125 ml tester";"40"
"18575";"VERSUS TIME FOR ENERGY edt 125 ml tester";"40"
"18576";"VERSUS TIME FOR RELAX edt 125 ml tester";"40"
"19827";"Van Cleef &Arpels REVE Elixir lady edp 100 ml  tester";"23"
"13623";"Van Cleef FEERIE lady edp 100ml";"39,5"
"13293";"Viktor & Rorf FLOWERBOMB edp fem 100 ml tester";"65"
"13088";"Viktor & Rorf FLOWERBOMB edp fem 50 ml";"47"
"21042";"Viktor & Rorf FLOWERBOMB edt fem 50 ml";"33"
"18433";"XERJOFF 1861  edt 100ml A SCENTED ITALIAN RENAISSANCE";"220"
"19260";"XERJOFF CASAMORATI 1888  edp 13 ml спрей миниатюрка";"35"
"17580";"XERJOFF CASAMORATI 1888 DAMA BIANCA  edp 100 ml tester";"160"
"19232";"XERJOFF CASAMORATI 1888 FIORE D'ULIVO ledy edp 13 ml в золот мешочке";"40"
"20861";"XERJOFF CASAMORATI 1888 LA TOSCA  edp 100 ml tester";"120"
"19226";"XERJOFF CASAMORATI 1888 MEFISTO  edp 13 ml в мешочке";"40"
"19261";"XERJOFF CASAMORATI 1888 REGIO  edp 13 ml спрей миниатюрка";"35"
"19266";"XERJOFF CASAMORATI FIERO men edp 13ml спрей  миниатюрка";"35"
"16921";"XERJOFF CASAMORATI FIERO men edp 75ml tester";"135"
"18346";"XERJOFF JTC ASCOT MOON ledy edp 50 ml";"115"
"17898";"XERJOFF JTC ASCOT MOON ledy edp 50 ml tester";"65"
"19595";"XERJOFF JTC ASCOT MOON ledy edp 50 ml потертые";"110"
"18342";"XERJOFF JTC BIRDIE ledy edp 50 ml";"115"
"17900";"XERJOFF JTC BIRDIE ledy edp 50 ml tester";"80"
"19596";"XERJOFF JTC BIRDIE ledy edp 50 ml потертые";"110"
"18340";"XERJOFF JTC KIND Of BLUE edp 50 ml";"110"
"17893";"XERJOFF JTC KIND Of BLUE edp 50 ml tester";"80"
"18339";"XERJOFF JTC MARQUEE edp 50 ml";"110"
"17817";"XERJOFF JTC MARQUEE edp 50 ml tester";"80"
"19597";"XERJOFF JTC MARQUEE edp 50 ml потертые";"105"
"18338";"XERJOFF JTC SHUNKOIN ledy edp 50 ml";"110"
"18426";"XERJOFF Oud Stars AL-KHATT ledy edp 50 ml";"170"
"18428";"XERJOFF Oud Stars GAO ledy edp 50 ml";"200"
"18424";"XERJOFF Oud Stars MAMLUK ledy edp 50 ml";"160"
"19638";"XERJOFF Oud Stars NAJAF ledy edp 50 ml";"170"
"18421";"XERJOFF Oud Stars ZAFAR ledy edp 50 ml";"200"
"17281";"XERJOFF Oud Stars ZAFAR ledy edp 50 ml tester";"120"
"18412";"XERJOFF Oud Stars ZANZIBAR   edp 50 ml tester";"133"
"16240";"XERJOFF Shooting Stars DHOFAR  edp 50 ml tester";"105"
"16239";"XERJOFF Shooting Stars ESQUEL  edp 100 ml";"235"
"16547";"XERJOFF Shooting Stars IBITIRA  ledy edp 50 ml";"190"
"16592";"XERJOFF Shooting Stars IBITIRA  ledy edp 50 ml в кожан шкатулке";"240"
"18436";"XERJOFF Shooting Stars KOBE ledy edp 100 ml";"260"
"18444";"XERJOFF Shooting Stars KOBE ledy edp 50 ml";"150"
"17164";"XERJOFF Shooting Stars KOBE ledy edp 50 ml tester";"120"
"16591";"XERJOFF Shooting Stars KOBE ledy edp 50 ml в кожан шкатулке";"240"
"18418";"XERJOFF Shooting Stars LUA  edp 50 ml в кожанной шкатулке";"200"
"18440";"XERJOFF Shooting Stars MODOC ledy edp 100 ml";"260"
"17283";"XERJOFF Shooting Stars MODOC ledy edp 50 ml tester";"120"
"17284";"XERJOFF Shooting Stars NIO ledy edp 50 ml tester";"140"
"18437";"XERJOFF Shooting Stars OESEL ledy edp 100 ml";"260"
"20698";"XERJOFF Shooting Stars OESEL ledy edp 100 ml tester";"140"
"18435";"XERJOFF Shooting Stars OESEL ledy edp 50 ml";"200"
"17165";"XERJOFF Shooting Stars OESEL ledy edp 50 ml tester";"130"
"19599";"XERJOFF Shooting Stars OESEL ledy edp 50 ml в кожан шкатулке";"240"
"16594";"XERJOFF Shooting Stars UDEN ledy edp 50 ml";"190"
"18409";"XERJOFF Shooting Stars UDEN ledy edp 50 ml tester";"120"
"18417";"XERJOFF Shooting Stars UDEN ledy edp 50 ml в кожанной шкатулке";"200"
"16951";"XERJOFF XXY  edp 50 ml tester";"135"
"1156";"YOHJI ESSENTIAL lady edt 50 ml красный tester ВИНТАЖ";"130"
"18538";"YOHJI SENSES men edt 100 ml";"64"
"12578";"YOHJI men edt 50 ml черные tester ВИНТАЖ";"115"
"12715";"YOHJI pour Men cologne 100 ml tester ВИНТАЖ";"100"
"19150";"YOHJI pour Men cologne 100 ml tester ВИНТАЖ пол флакона";"30"
"13131";"YSL CINEMA parfum lady 15 ml";"65"
"20580";"YSL KOUROS ENERGIZING men edt 100 ml tester";"37"
"959";"YSL KOUROS men edt  100 ml tester";"38"
"14108";"YSL L'HOMME LA NUIT edt 60 ml tester";"36"
"11880";"YSL L'HOMME edt 100 ml tester";"46"
"18873";"YSL MAJESTIC ROSE lady edp 80 ml";"125"
"19184";"YSL MANIFESTO LECLAT lady edt 90 ml tester";"34"
"17593";"YSL MANIFESTO lady edp 90 ml tester";"39,5"
"11392";"YSL OPIUM fem edt 50 ml";"45"
"11606";"YSL OPIUM fem edt 90 ml tester";"41"
"17126";"YSL OPIUM vapeurs de parfum Legere fem edt 125 ml tester";"35"
"14531";"YSL PARISIENNE  lady edp 50 ml";"24"
"14532";"YSL PARISIENNE  lady edp 90ml tester";"30"
"11353";"ZEGNA  Z men edt 50 ml";"21"
"19143";"ПАКЕТ CHANEL";"2"
"19145";"ПАКЕТ DIOR";"2"
"19140";"ПАКЕТ GUCCI FLORA";"2"
"19141";"ПАКЕТ GUCCI PREMIER";"2"
