<svg xmlns="http://www.w3.org/2000/svg" viewBox="0 0 9.93 10.01">
  <defs>
    <style>
      .cls-1 {
        isolation: isolate;
      }

      .cls-2 {
        fill: #fc3;
        fill-rule: evenodd;
      }
    </style>
  </defs>
  <title>star-full</title>
  <g id="active" class="cls-1">
    <g id="active-2" data-name="active">
      <path class="cls-2" d="M15.8,10.14a0.39,0.39,0,0,0,.1-0.4,0.36,0.36,0,0,0-.32-0.26L12.7,9.25A0.36,0.36,0,0,1,12.4,9L11.25,6.23a0.35,0.35,0,0,0-.66,0L9.49,9a0.36,0.36,0,0,1-.3.23l-2.88.28A0.37,0.37,0,0,0,6,9.83a0.39,0.39,0,0,0,.11.4l2.21,2a0.39,0.39,0,0,1,.12.37l-0.63,3a0.39,0.39,0,0,0,.14.39,0.35,0.35,0,0,0,.4,0l2.46-1.6a0.35,0.35,0,0,1,.37,0l2.49,1.55a0.34,0.34,0,0,0,.4,0,0.39,0.39,0,0,0,.14-0.4l-0.69-3a0.39,0.39,0,0,1,.11-0.37Z" transform="translate(-5.99 -6)"/>
    </g>
  </g>
</svg>
